<svg width="46" height="46" viewBox="0 0 46 46" fill="none" xmlns="http://www.w3.org/2000/svg">
<path d="M31.4585 1.73329C27.3013 0.0104443 22.7265 -0.440783 18.3129 0.436688C13.8992 1.31416 9.84499 3.48091 6.66299 6.66284C3.48098 9.84478 1.31419 13.8989 0.436697 18.3125C-0.440793 22.7261 0.0104447 27.3007 1.73333 31.4578C3.45522 35.6143 6.371 39.1669 10.112 41.6664C13.8529 44.1659 18.251 45.5 22.7502 45.5C27.2494 45.5 31.6475 44.1659 35.3885 41.6664C39.1294 39.1669 42.0452 35.6143 43.7671 31.4578C44.9108 28.6979 45.4996 25.7397 45.5 22.7523C45.5004 19.7648 44.9123 16.8065 43.7693 14.0463C42.6264 11.2861 40.9509 8.77804 38.8386 6.66536C36.7263 4.55269 34.2185 2.87677 31.4585 1.73329ZM31.5737 3.43638C36.2284 5.54604 39.9576 9.27548 42.067 13.9302L35.0543 16.8359C33.7198 14.0395 31.4659 11.7857 28.6694 10.4512L31.5737 3.43638ZM13.9328 3.43638L16.837 10.4497C14.0407 11.7844 11.7869 14.0381 10.4522 16.8344L3.43949 13.9302C5.54932 9.2758 9.27843 5.5465 13.9328 3.43638ZM2.8594 15.3315L9.87134 18.2357C8.83776 21.1568 8.83776 24.3441 9.87134 27.2653L2.8594 30.1695C1.05919 25.3873 1.05919 20.1137 2.8594 15.3315ZM13.9305 42.0646C9.27668 39.9545 5.5483 36.2251 3.43949 31.5708L10.4522 28.6666C11.7869 31.4629 14.0407 33.7166 16.837 35.0513L13.9305 42.0646ZM15.3318 42.6439L17.9965 36.2107L18.2361 35.6313C18.666 35.783 19.1021 35.9104 19.5396 36.0165L19.896 34.5432C19.2863 34.3945 18.6888 34.1996 18.1087 33.9601C15.8918 33.0418 13.9969 31.4868 12.6638 29.4916C11.3307 27.4964 10.6191 25.1508 10.6191 22.7512C10.6191 20.3517 11.3307 18.006 12.6638 16.0109C13.9969 14.0157 15.8918 12.4607 18.1087 11.5424C18.2007 11.5043 18.2843 11.4484 18.3548 11.3779C18.4252 11.3075 18.481 11.2239 18.5191 11.1318C18.5572 11.0398 18.5768 10.9412 18.5768 10.8415C18.5767 10.7419 18.5571 10.6433 18.5189 10.5513L15.3341 2.85782C20.1165 1.05841 25.39 1.05841 30.1724 2.85782L26.9876 10.5513C26.9494 10.6433 26.9297 10.7419 26.9297 10.8415C26.9297 10.9412 26.9492 11.0398 26.9873 11.1318C27.0254 11.2239 27.0813 11.3075 27.1517 11.3779C27.2221 11.4484 27.3058 11.5043 27.3978 11.5424C29.6147 12.4607 31.5096 14.0157 32.8427 16.0109C34.1758 18.006 34.8874 20.3517 34.8874 22.7512C34.8874 25.1508 34.1758 27.4964 32.8427 29.4916C31.5096 31.4868 29.6147 33.0418 27.3978 33.9601C26.8173 34.1997 26.2196 34.3952 25.6097 34.5447L25.9676 36.0181C26.4052 35.9111 26.8412 35.7822 27.2704 35.6313L27.51 36.2107L30.1747 42.6439C25.3915 44.4439 20.1172 44.4439 15.3341 42.6439H15.3318ZM31.5714 42.0646L28.6679 35.0513C31.4643 33.7166 33.718 31.4629 35.0528 28.6666L42.0655 31.5708C39.9565 36.2252 36.2278 39.9546 31.5737 42.0646H31.5714ZM42.6425 30.1695L35.6306 27.2653C36.6642 24.3441 36.6642 21.1568 35.6306 18.2357L42.6425 15.3315C44.4442 20.1131 44.4458 25.3867 42.6471 30.1695H42.6425Z" fill="#03236B"/>
<path d="M13.5532 7.49654L12.538 5.80859C11.8879 6.21866 11.2515 6.6615 10.6489 7.1242L11.8114 8.71285C12.3665 8.28391 12.9535 7.87583 13.5532 7.49654Z" fill="#03236B"/>
<path d="M9.6854 7.74487C8.16376 9.16586 6.8556 10.8387 5.80859 12.7025L7.07358 13.5534C8.03948 11.8359 9.24594 10.2944 10.649 8.98508L9.6854 7.74487Z" fill="#03236B"/>
<path d="M22.0239 30.9789H23.476C23.6115 30.9796 23.7446 30.9413 23.8601 30.8684C23.9756 30.7954 24.0689 30.6906 24.1295 30.5659L25.5816 27.5786C25.6306 27.4746 25.6554 27.3604 25.6542 27.2448V16.0427H27.1063V14.5491H25.6542V7.82781C25.6542 7.03555 25.3482 6.27573 24.8036 5.71552C24.2589 5.1553 23.5202 4.84058 22.7499 4.84058C21.9797 4.84058 21.241 5.1553 20.6963 5.71552C20.1517 6.27573 19.8457 7.03555 19.8457 7.82781V14.5491H18.3936V16.0427H19.8457V27.2448C19.8456 27.3607 19.8717 27.475 19.9219 27.5786L21.374 30.5659C21.4344 30.69 21.5271 30.7944 21.6419 30.8674C21.7567 30.9403 21.8889 30.9789 22.0239 30.9789ZM21.2978 7.82781C21.2978 7.43168 21.4508 7.05177 21.7231 6.77166C21.9955 6.49156 22.3648 6.33419 22.7499 6.33419C23.1351 6.33419 23.5044 6.49156 23.7767 6.77166C24.0491 7.05177 24.2021 7.43168 24.2021 7.82781V14.5491H21.2978V7.82781ZM21.2978 16.0427H24.2021V18.6565L23.8238 18.9553C23.7046 19.0071 23.5758 19.0317 23.4464 19.0273C23.317 19.023 23.1901 18.9897 23.0745 18.9299C22.5202 18.6524 21.8822 18.61 21.2978 18.8119V16.0427ZM21.2978 20.3682L21.4648 20.3271C21.5193 20.3135 21.5721 20.2937 21.6224 20.2681C21.747 20.2044 21.8843 20.1712 22.0235 20.1712C22.1627 20.1712 22.3 20.2044 22.4247 20.2681C22.6972 20.412 22.9956 20.4969 23.3013 20.5175C23.607 20.5382 23.9135 20.4943 24.2021 20.3884V27.0686L23.0273 29.4852H22.4726L21.2978 27.0686V20.3682Z" fill="#03236B"/>
<path d="M23.3645 33.3857C23.3117 33.2456 23.2256 33.1266 23.1165 33.043C23.0074 32.9595 22.8801 32.915 22.75 32.915C22.62 32.915 22.4926 32.9595 22.3836 33.043C22.2745 33.1266 22.1884 33.2456 22.1356 33.3857L20.5389 37.6177C20.3749 38.0518 20.3056 38.5273 20.3373 39.0009C20.369 39.4745 20.5007 39.9314 20.7204 40.3298C20.9401 40.7282 21.2408 41.0557 21.5953 41.2824C21.9498 41.5091 22.3467 41.6278 22.75 41.6278C23.1534 41.6278 23.5503 41.5091 23.9048 41.2824C24.2593 41.0557 24.56 40.7282 24.7797 40.3298C24.9994 39.9314 25.1311 39.4745 25.1628 39.0009C25.1945 38.5273 25.1252 38.0518 24.9612 37.6177L23.3645 33.3857ZM23.6516 39.4653C23.5496 39.6352 23.4145 39.7739 23.2577 39.8696C23.1008 39.9653 22.9267 40.0152 22.75 40.0152C22.5734 40.0152 22.3993 39.9653 22.2424 39.8696C22.0856 39.7739 21.9505 39.6352 21.8485 39.4653C21.7493 39.2893 21.6897 39.0864 21.6755 38.8758C21.6612 38.6652 21.6928 38.4538 21.7672 38.2616L22.75 35.6569L23.7329 38.2616C23.8073 38.4538 23.8389 38.6652 23.8246 38.8758C23.8104 39.0864 23.7508 39.2893 23.6516 39.4653Z" fill="#03236B"/>
</svg>
