<svg width="391" height="397" viewBox="0 0 391 397" fill="none" xmlns="http://www.w3.org/2000/svg">
<path d="M35.8989 92.7441L66.9403 97.1461L75.8201 123.785L66.9403 132.665L40.3008 123.785L35.8989 92.7441Z" fill="#F7F7F7"/>
<path d="M73.619 130.464C74.8334 129.249 74.8334 127.276 73.619 126.062L60.3373 112.78C59.1229 111.566 57.1497 111.566 55.9353 112.78C54.721 113.994 54.721 115.968 55.9353 117.182L69.2171 130.464C70.4314 131.678 72.4047 131.678 73.619 130.464Z" fill="#99B9EE"/>
<path d="M51.4574 117.182C53.886 119.61 57.9085 119.61 60.3372 117.182C62.7659 114.753 62.7659 110.731 60.3372 108.302C57.9085 105.873 53.886 105.873 51.4574 108.302C49.0287 110.731 49.0287 114.677 51.4574 117.182Z" fill="#99B9EE"/>
<path d="M93.5793 132.665V137.067L80.2976 150.349H75.8956L67.0158 132.589L75.8956 123.709L93.5793 132.665Z" fill="#FFA500"/>
<path d="M125.152 98.8154L122.42 103.825L104.66 108.227L100.562 103.825L104.205 90.2392L102.307 81.0558L114.603 78.5513L116.5 87.7346L125.152 98.8154Z" fill="#003282"/>
<path d="M114.603 78.5514L102.308 81.0559L99.8031 68.7608L111.491 63.1445L114.603 78.5514Z" fill="#347AF0"/>
<path d="M133.121 199.681C139.876 198.315 144.278 191.636 142.912 184.882L125.152 98.8159L100.562 103.901L118.246 189.891C119.688 196.721 126.291 201.048 133.121 199.681Z" fill="#03236B"/>
<path d="M93.5795 132.665L75.8199 150.424L120.143 194.747C125.076 199.68 132.969 199.68 137.903 194.747C142.836 189.814 142.836 181.921 137.903 176.988L93.5795 132.665Z" fill="#FFA500"/>
<path d="M71.7217 160.139L54.721 155.965L48.6494 180.327L65.65 184.502L71.7217 160.139Z" fill="#003282"/>
<path d="M0.00012207 155.281L25.2734 146.174C29.5995 144.656 34.305 144.352 38.707 145.491C42.1982 146.325 45.4617 147.995 48.1939 150.348L54.7209 155.888L48.7252 180.251L40.3767 182.148C36.8855 182.907 33.1666 182.907 29.6753 181.996C25.1975 180.858 21.175 178.505 18.0633 175.09L0.00012207 155.281Z" fill="#F7F7F7"/>
<path d="M8.72796 164.845L18.8221 158.469C25.0455 154.675 32.8628 154.751 39.0104 158.697C40.4524 159.608 40.9078 161.581 39.997 163.023C39.8452 163.251 39.6934 163.403 39.5416 163.554C38.4791 164.617 36.8853 164.769 35.671 164.01C31.5726 161.354 26.3358 161.278 22.1615 163.858L13.054 169.626L8.72796 164.845Z" fill="#99B9EE"/>
<path d="M69.9759 159.684L63.9042 184.046L127.884 199.908C134.639 201.578 141.394 197.48 143.063 190.725C144.733 183.97 140.635 177.216 133.88 175.546L69.9759 159.684Z" fill="#1F58E0"/>
<path d="M257.514 122.571L291.288 141.849L325.062 122.571L291.288 103.37L257.514 122.571Z" fill="#FFA500"/>
<path d="M291.288 141.848L312.235 129.857L325.062 137.143L291.288 156.42L257.514 137.143L270.341 129.857L291.288 141.848Z" fill="#1F58E0"/>
<path d="M291.288 156.419L312.235 144.428L325.062 151.714L291.288 170.991L257.514 151.714L270.341 144.428L291.288 156.419Z" fill="#003282"/>
<path d="M164.922 300.394H247.193C251.063 300.394 254.175 297.282 254.175 293.411C254.175 289.54 251.063 286.429 247.193 286.429H164.922C161.051 286.429 157.939 289.54 157.939 293.411C157.939 297.358 161.051 300.394 164.922 300.394Z" fill="#99B9EE"/>
<path d="M223.128 381.118V388.1H152.317V381.118H223.128Z" fill="#03236B"/>
<path d="M216.531 386.688C215.924 390.331 218.352 393.746 221.995 394.353C225.638 394.961 229.054 392.532 229.661 388.889C230.268 385.246 227.839 381.831 224.196 381.223C220.553 380.616 217.138 383.045 216.531 386.688Z" fill="#03236B"/>
<path d="M184.579 295.84H191.561V383.955H184.579V295.84Z" fill="#03236B"/>
<path d="M145.72 386.688C145.113 390.331 147.541 393.746 151.184 394.353C154.827 394.961 158.243 392.532 158.85 388.889C159.457 385.246 157.028 381.831 153.385 381.223C149.742 380.616 146.327 383.045 145.72 386.688Z" fill="#03236B"/>
<path d="M143.291 300.394H221.084C226.397 300.394 230.192 295.233 228.674 289.996L191.561 162.036C190.574 158.62 187.463 156.268 183.971 156.268H106.254C100.941 156.268 97.1466 161.428 98.6645 166.665L135.702 294.626C136.688 298.041 139.8 300.394 143.291 300.394Z" fill="#99B9EE"/>
<path d="M153.993 300.394H221.692C227.004 300.394 230.799 295.233 229.281 289.996L192.168 162.036C191.181 158.62 188.07 156.268 184.579 156.268H116.88C111.567 156.268 107.772 161.428 109.29 166.665L146.403 294.626C147.39 298.041 150.501 300.394 153.993 300.394Z" fill="#F2F2F2"/>
<path d="M143.367 300.394H225.638C229.509 300.394 232.621 297.282 232.621 293.411C232.621 289.54 229.509 286.429 225.638 286.429H143.367C139.496 286.429 136.385 289.54 136.385 293.411C136.385 297.358 139.496 300.394 143.367 300.394Z" fill="#99B9EE"/>
<path d="M209.928 191.787L226.777 240.284L222.83 249.847L200.137 245.521L193.686 193.608L209.928 191.787Z" fill="#FFE3CA"/>
<path d="M199.758 168.184C199.758 168.184 213.04 175.697 216 200.591L198.392 211.065L199.758 168.184Z" fill="#1F58E0"/>
<path d="M176.989 158.621L199.758 168.184L217.669 248.027L157.636 271.706L125.684 180.631C125.684 180.631 130.92 161.581 160.899 156.8L176.989 158.621Z" fill="#1F58E0"/>
<path d="M116.348 252.428C116.424 251.365 117.031 245.066 117.259 244.079L127.125 180.782C129.023 172.13 138.813 167.728 146.555 172.054C152.247 175.242 154.827 182.073 152.626 188.144L140.863 242.486L116.348 252.428Z" fill="#FFE3CA"/>
<path d="M129.782 238.843L196.722 233.606L200.061 245.522L135.626 267.304C125.683 270.643 115.589 262.826 116.348 252.428C116.88 245.218 122.572 239.45 129.782 238.843Z" fill="#FFE3CA"/>
<path d="M133.88 170.082C133.88 170.082 125.304 173.8 121.661 195.886L151.791 205.145C151.791 205.145 171.524 183.06 150.425 168.336L133.88 170.082Z" fill="#1F58E0"/>
<path d="M217.745 246.205C215.316 252.808 202.869 253.035 196.342 250.607C189.739 248.178 182.985 244.383 185.489 237.78C187.918 231.177 198.923 227.307 206.057 228.901C214.785 230.95 220.25 239.678 217.745 246.205Z" fill="#FFE3CA"/>
<path d="M181.315 255.16L229.129 249.012L228.446 243.624L180.632 249.771C179.114 249.999 178.127 251.289 178.279 252.807C178.507 254.325 179.873 255.387 181.315 255.16Z" fill="#FFA500"/>
<path d="M222.83 249.847L286.127 241.727C289.77 241.271 292.654 238.387 293.186 234.744L299.864 188.827C300.472 184.729 296.98 181.238 292.958 181.769L234.822 189.207C232.393 189.51 230.496 191.408 230.192 193.836L222.83 249.847Z" fill="#FFA500"/>
<path d="M257.97 218.274C258.425 221.614 261.385 223.891 264.724 223.511C268.064 223.056 270.341 220.096 269.961 216.757C269.506 213.417 266.546 211.14 263.206 211.52C259.867 211.975 257.514 215.011 257.97 218.274Z" fill="white"/>
<path d="M298.498 371.129L314.967 377.96L325.365 378.719C330.146 379.098 334.093 382.514 335.155 387.219L335.611 389.42L279.296 396.479L278.158 373.786L298.498 371.129Z" fill="#FFA500"/>
<path d="M278.082 373.786L272.542 349.044L292.958 346.312L298.498 371.129L278.082 373.786Z" fill="#FFE3CA"/>
<path d="M157.711 271.705C157.711 271.705 159.305 285.366 183.82 287.188H242.715L270.493 364.677L299.712 359.972L270.493 246.204L203.552 253.642L157.711 271.705Z" fill="#003282"/>
<path d="M345.705 326.653L363.313 324.073L372.648 319.367C376.899 317.242 382.135 318.153 385.399 321.644L386.917 323.314L342.214 358.302L329.615 339.404L345.705 326.653Z" fill="#FFA500"/>
<path d="M329.463 339.405L314.132 319.899L330.222 306.997L345.705 326.654L329.463 339.405Z" fill="#FFE3CA"/>
<path d="M217.669 248.026L263.054 234.441C264.952 233.834 266.849 233.227 268.671 232.468C272.617 230.95 282.484 228.901 290.149 240.589C300.016 255.616 339.33 312.386 339.33 312.386L315.347 330.07L262.978 263.281C258.577 257.21 251.518 253.643 244.08 253.643L203.552 253.567L217.669 248.026Z" fill="#003282"/>
<path d="M159.306 133.728C158.471 132.21 144.43 107.164 157.332 100.865C157.332 100.865 159.002 87.6592 173.802 89.1013C188.601 90.5433 184.579 94.8693 193.99 92.7443C203.401 90.6192 212.281 95.4765 211.598 103.294C210.915 111.187 204.843 114.526 193.99 112.629C183.137 110.732 174.561 112.174 174.561 112.174L165.529 114.83L159.306 133.728Z" fill="#FFA500"/>
<path d="M157.484 160.822L158.622 129.022L180.708 136.839L178.962 162.34C178.583 168.26 175.244 172.89 169.324 172.434L167.502 172.283C161.582 171.903 157.104 166.818 157.484 160.822Z" fill="#FFE3CA"/>
<path d="M160.52 133.424C160.52 133.424 156.345 159.987 179.038 161.505L180.025 148.907L160.52 133.424Z" fill="#FCD2B1"/>
<path d="M179.266 155.586H178.507C167.199 155.054 158.471 145.492 159.002 134.183L160.064 111.111C160.216 108.151 162.721 105.95 165.605 106.026L192.548 107.316C197.785 107.544 201.807 112.022 201.579 117.258L200.669 136.232C200.137 147.389 190.575 156.117 179.266 155.586Z" fill="#FFE3CA"/>
<path d="M164.087 127.201C163.935 130.996 160.672 133.956 156.877 133.804C153.082 133.652 150.122 130.389 150.274 126.594C150.426 122.799 153.689 119.839 157.484 119.991C161.355 120.143 164.315 123.33 164.087 127.201Z" fill="#FFE3CA"/>
<path d="M167.426 108.682L166.06 134.486C165.908 136.839 166.895 139.192 168.792 140.482C170.007 141.317 170.993 142.455 173.119 142.152C179.266 141.241 176.458 136.687 188.905 137.37C200.289 137.978 199.454 144.353 199.454 144.353C199.454 144.353 197.253 156.42 181.619 156.951C165.984 157.559 158.167 147.616 159.989 134.486L161.506 107.24L167.426 108.682Z" fill="#FFA500"/>
<path d="M200.82 113.008C200.82 113.008 193.534 114.146 182.985 111.566C172.435 108.985 164.087 117.486 164.087 117.486C164.087 117.486 161.81 121.432 161.279 121.281C160.747 121.205 157.484 119.914 157.484 119.914L157.636 107.999L165.377 102.003L186.78 101.092L199.454 103.9L200.82 113.008Z" fill="#FFA500"/>
<path d="M238.344 48.6491L237.813 49.7876L249.122 54.9485L249.653 53.7342C251.854 48.9527 256.028 45.0061 261.037 42.8811C265.363 41.0596 268.399 37.5684 269.765 33.1664C271.663 26.4876 268.551 17.9873 260.81 14.4202C252.689 10.7013 243.278 14.1166 239.711 21.7821C238.117 25.2733 237.889 29.2957 239.255 33.0146C241.077 38.0996 240.697 43.5641 238.344 48.6491Z" fill="#FFA500"/>
<path d="M235.157 55.4035C234.55 56.6937 235.157 58.2116 236.523 58.8188L243.05 61.7788C244.416 62.3859 245.934 61.8547 246.541 60.4885L247.907 57.5286L236.599 52.3677L235.157 55.4035Z" fill="#FFA500"/>
<path d="M265.321 1.21693L268.014 2.44531L265.179 8.65981L262.486 7.43143L265.321 1.21693Z" fill="#FFA500"/>
<path d="M245.023 6.45114L242.291 7.43779L239.71 0.986647L242.443 0L245.023 6.45114Z" fill="#FFA500"/>
<path d="M223.263 15.9651L229.753 18.9258L228.557 21.5497L222.066 18.589L223.263 15.9651Z" fill="#FFA500"/>
<path d="M277.972 40.9421L284.463 43.9028L283.266 46.5267L276.776 43.566L277.972 40.9421Z" fill="#FFA500"/>
<path d="M283.882 18.8979L284.944 21.6302L278.417 23.9071L277.431 21.1748L283.882 18.8979Z" fill="#FFA500"/>
<path d="M328.582 78.0729L331.694 74.9612C332.225 74.4299 332.909 74.1263 333.667 74.1263C334.426 74.1263 335.11 74.4299 335.641 74.9612L336.096 75.4166C340.195 72.6843 345.052 71.2423 350.061 71.1664H350.137C353.249 71.1664 356.284 71.6977 359.093 72.8361L353.628 67.3716C352.945 67.6752 352.186 67.9029 351.427 67.9029C350.061 67.9029 348.695 67.3716 347.784 66.385C346.797 65.3983 346.266 64.1081 346.266 62.742C346.266 61.3758 346.797 60.0097 347.784 59.099C348.771 58.1123 350.061 57.5811 351.427 57.5811C352.793 57.5811 354.159 58.1123 355.07 59.099C356.057 60.0856 356.588 61.3758 356.588 62.742C356.588 63.5009 356.436 64.2599 356.057 64.9429L365.923 74.8094L366.227 74.5058C366.758 73.9745 367.441 73.671 368.2 73.671C368.959 73.671 369.642 73.9745 370.173 74.5058L373.361 77.6175C373.892 78.1488 374.196 78.8319 374.196 79.5908C374.196 80.3498 373.892 81.0328 373.361 81.5641L373.057 81.8677L382.924 91.7341C383.607 91.4306 384.366 91.2029 385.125 91.2029C386.491 91.2029 387.857 91.7341 388.768 92.7208C390.817 94.77 390.817 98.0335 388.768 100.083C387.781 101.069 386.491 101.601 385.125 101.601C383.759 101.601 382.393 101.069 381.482 100.083C379.888 98.4889 379.509 96.0602 380.495 94.1628L375.031 88.6983C376.093 91.5824 376.7 94.6182 376.7 97.7299C376.7 102.739 375.258 107.52 372.45 111.695L372.981 112.226C374.044 113.289 374.044 115.11 372.981 116.173L369.87 119.284C369.338 119.816 368.655 120.119 367.896 120.119C367.138 120.119 366.454 119.816 365.923 119.284L362.811 116.173C361.749 115.11 361.749 113.289 362.811 112.226L365.923 109.114C366.454 108.583 367.138 108.279 367.896 108.279C368.655 108.279 369.338 108.583 369.87 109.114L369.946 109.19C374.423 101.904 374.272 92.4172 369.338 85.283C369.035 85.4348 368.655 85.5107 368.352 85.5107C367.593 85.5107 366.91 85.2071 366.379 84.6758L363.267 81.5641C362.432 80.7293 362.28 79.5908 362.66 78.6042C355.525 73.671 346.038 73.4433 338.752 77.997L338.98 78.2247C340.043 79.2872 340.043 81.1087 338.98 82.1713L335.868 85.283C335.337 85.8143 334.654 86.1179 333.895 86.1179C333.136 86.1179 332.453 85.8143 331.922 85.283L328.81 82.1713C327.52 80.9569 327.52 79.2113 328.582 78.0729ZM365.62 114.199L367.821 116.4L370.022 114.199L367.821 111.998L365.62 114.199ZM352.641 61.3758C352.338 61.0723 351.882 60.8446 351.427 60.8446C350.972 60.8446 350.516 60.9964 350.213 61.3758C349.909 61.6794 349.681 62.1348 349.681 62.5902C349.681 63.0455 349.833 63.5009 350.213 63.8045C350.516 64.1081 350.972 64.3358 351.427 64.3358C351.882 64.3358 352.338 64.184 352.641 63.8045C352.945 63.5009 353.173 63.0455 353.173 62.5902C353.097 62.1348 352.945 61.7553 352.641 61.3758ZM383.91 97.5781C384.214 97.8817 384.669 98.1094 385.125 98.1094C385.58 98.1094 386.036 97.9576 386.339 97.5781C387.022 96.895 387.022 95.8325 386.339 95.1495C386.036 94.8459 385.58 94.6182 385.125 94.6182C384.669 94.6182 384.214 94.77 383.91 95.1495C383.227 95.8325 383.227 96.9709 383.91 97.5781ZM368.276 81.7159L370.477 79.5149L368.276 77.314L366.075 79.5149L368.276 81.7159ZM333.743 82.2472L335.944 80.0462L333.743 77.8452L331.542 80.0462L333.743 82.2472Z" fill="#003282"/>
</svg>
