<svg width="22" height="22" viewBox="0 0 22 22" fill="none" xmlns="http://www.w3.org/2000/svg">
<path d="M4.70522 7.05786H0.33606V21.2856H4.70522V7.05786Z" fill="white"/>
<path d="M2.57668 5.15337C3.99974 5.15337 5.15336 3.99975 5.15336 2.57668C5.15336 1.15362 3.99974 0 2.57668 0C1.15362 0 0 1.15362 0 2.57668C0 3.99975 1.15362 5.15337 2.57668 5.15337Z" fill="white"/>
<path d="M11.7635 13.7797C11.7635 11.7632 12.6597 10.5309 14.4522 10.5309C16.0206 10.5309 16.8048 11.6512 16.8048 13.7797C16.8048 15.7963 16.8048 21.2857 16.8048 21.2857H21.174C21.174 21.2857 21.174 16.1324 21.174 12.2113C21.174 8.40231 19.0454 6.4978 16.0206 6.4978C12.9958 6.4978 11.7635 8.85043 11.7635 8.85043V6.94592H7.50635V21.1737H11.7635C11.7635 21.2857 11.7635 16.0203 11.7635 13.7797Z" fill="white"/>
</svg>
