<svg width="46" height="46" viewBox="0 0 46 46" fill="none" xmlns="http://www.w3.org/2000/svg">
<path d="M22.9995 46C10.2892 46 0 35.7375 0 23.0604C0 10.2625 10.2892 0 22.9995 0C35.7097 0 45.999 10.2625 45.999 22.9396C46.12 35.6168 35.7097 46 22.9995 46Z" fill="#347AF0"/>
<path d="M20.2 29.3001C20.8 29.2001 21.3 29.0001 21.7 28.6001C22.1 28.3001 22.4 28.0001 22.6 27.6001C23 27.0001 23.2 26.3001 23.2 25.5001C23.2 24.7001 23 24.1001 22.7 23.5001C22.4 23.0001 21.8 22.6001 21.2 22.3001C21.6 22.1001 22 21.8001 22.2 21.5001C22.6 21.0001 22.8 20.4001 22.8 19.5001C22.8 18.7001 22.6 18.0001 22.2 17.5001C21.5 16.6001 20.4 16.1001 18.7 16.1001H12.3V29.4001H18.3C19 29.5001 19.6 29.5001 20.2 29.3001ZM15 18.5001H17.9C18.5 18.5001 19.1 18.6001 19.5 18.7001C20 18.9001 20.2 19.3001 20.2 19.9001C20.2 20.5001 20 20.9001 19.7 21.1001C19.3 21.3001 18.9 21.4001 18.3 21.4001H15V18.5001ZM15 27.2001V23.6001H18.3C18.9 23.6001 19.3 23.7001 19.6 23.8001C20.2 24.1001 20.4 24.5001 20.4 25.2001C20.4 26.0001 20.1 26.6001 19.5 26.9001C19.2 27.1001 18.7 27.1001 18.2 27.1001H15V27.2001Z" fill="white"/>
<path d="M25.5 28.5998C26.5 29.3998 27.7 29.7998 29 29.7998C30.6 29.7998 31.8 29.2998 32.7 28.3998C33.3 27.7998 33.6 27.1998 33.7 26.5998H31C30.8 26.8998 30.7 27.0998 30.5 27.2998C30.1 27.5998 29.7 27.7998 29.1 27.7998C28.5 27.7998 28.1 27.6998 27.7 27.3998C27.1 26.9998 26.7 26.2998 26.7 25.2998H33.9C33.9 24.3998 33.9 23.7998 33.8 23.2998C33.7 22.4998 33.4 21.7998 33 21.2998C32.6 20.5998 32 20.0998 31.3 19.7998C30.6 19.4998 29.8 19.2998 29 19.2998C27.6 19.2998 26.4 19.7998 25.5 20.6998C24.4 21.6998 24 22.9998 24 24.6998C24 26.4998 24.5 27.7998 25.5 28.5998ZM27.3 22.0998C27.7 21.6998 28.2 21.4998 28.8 21.4998C29.4 21.4998 29.9 21.6998 30.3 21.9998C30.7 22.3998 30.9 22.8998 31 23.5998H26.6C26.7 22.9998 27 22.4998 27.3 22.0998Z" fill="white"/>
<path d="M31.6 17H25.8V18.3H31.6V17Z" fill="white"/>
</svg>
