<svg width="424" height="461" viewBox="0 0 424 461" fill="none" xmlns="http://www.w3.org/2000/svg">
<path fill-rule="evenodd" clip-rule="evenodd" d="M81.0049 135.557L81.1606 136.541C81.1606 136.551 81.1645 136.588 81.1711 136.652C81.3829 138.709 84.4204 168.203 54.2281 183.573L53.7092 183.831L53.1903 183.573C22.1583 167.723 26.2059 136.852 26.2578 136.541L26.4135 135.557H27.3995C46.6518 135.557 52.827 129.393 52.8789 129.342L53.7092 128.409L54.5395 129.342C54.5914 129.393 60.8186 135.557 80.019 135.557H81.0049ZM53.6572 181.241C64.9699 175.337 72.6501 166.738 76.4902 155.654C79.2924 147.522 79.1367 140.478 78.9291 137.888C62.9461 137.681 55.8367 133.381 53.6572 131.672C51.4777 133.433 44.3684 137.681 28.3853 137.888C28.1778 140.426 28.0221 147.522 30.8243 155.654C34.6644 166.738 42.3446 175.337 53.6572 181.241Z" fill="#99B9EE"/>
<path fill-rule="evenodd" clip-rule="evenodd" d="M110.532 94.0164L111.622 96.8652L119.458 95.5703L119.562 92.5143C120.444 92.1 121.274 91.582 122.052 90.9604L124.855 92.2036L129.473 85.729L127.397 83.5017C127.709 82.5694 127.916 81.6371 128.072 80.6529L130.926 79.5652L129.629 71.7439L126.567 71.6403C126.152 70.7598 125.633 69.931 125.01 69.1541L126.256 66.3571L119.821 61.7472L117.59 63.819C116.656 63.5083 115.721 63.2493 114.736 63.1457L113.646 60.2969L105.81 61.5918L105.706 64.6478C104.824 65.0622 103.994 65.5801 103.215 66.2017L100.413 64.9586L95.7946 71.4331L97.8703 73.6604C97.5589 74.5927 97.2995 75.5251 97.1957 76.5092L94.3416 77.5969L95.6389 85.4182L98.7006 85.5218C99.1157 86.4023 99.6346 87.2311 100.257 88.008L99.0119 90.805L105.447 95.4149L107.678 93.3431C108.612 93.6539 109.546 93.9128 110.532 94.0164ZM107.782 91.1158L107.159 90.8569L105.239 92.6179L101.71 90.0799L102.8 87.6973L102.385 87.1793C101.606 86.1952 100.932 85.1592 100.413 84.0197L100.153 83.3981L97.5588 83.2946L96.8323 78.9954L99.2713 78.0631L99.3232 77.3897C99.427 76.1466 99.6864 74.9035 100.153 73.764L100.413 73.1424L98.5967 71.226L101.139 67.7038L103.527 68.7915L104.045 68.3772C105.031 67.6002 106.069 66.9268 107.211 66.4089L107.834 66.1499L107.937 63.5601L112.245 62.8349L113.179 65.2694L113.853 65.3212C115.099 65.4247 116.344 65.6837 117.486 66.1499L118.108 66.4089L120.029 64.6478L123.557 67.1858L122.467 69.5685L122.883 70.0864C123.661 71.0706 124.336 72.1065 124.855 73.246L125.114 73.8676L127.709 73.9712L128.435 78.2703L125.996 79.2026L125.944 79.876C125.841 81.1191 125.581 82.3622 125.114 83.5017L124.855 84.1233L126.671 86.0398L124.128 89.5619L121.741 88.4742L121.222 88.8886C120.236 89.6655 119.198 90.3389 118.057 90.8569L117.434 91.1158L117.33 93.7057L113.023 94.4308L112.089 91.9964L111.414 91.9446C110.169 91.841 108.923 91.582 107.782 91.1158ZM112.556 87.231C110.792 87.231 109.027 86.6613 107.574 85.6254C103.682 82.8801 102.8 77.4933 105.55 73.6086C108.301 69.7238 113.698 68.8433 117.59 71.5885C119.458 72.9352 120.703 74.9035 121.118 77.1825C121.482 79.4616 120.963 81.7406 119.665 83.6053C118.316 85.47 116.344 86.7131 114.061 87.1275C113.971 87.1356 113.883 87.1438 113.798 87.1518L113.798 87.1518C113.343 87.1943 112.949 87.231 112.556 87.231ZM107.315 74.8517C108.56 73.0906 110.532 72.1582 112.556 72.1582C113.853 72.1582 115.151 72.5726 116.292 73.3496C117.693 74.3337 118.576 75.784 118.887 77.4933C119.198 79.2026 118.783 80.9119 117.797 82.3104C116.811 83.7089 115.358 84.5894 113.646 84.9002C111.933 85.211 110.221 84.7966 108.82 83.8125C107.419 82.8283 106.536 81.378 106.225 79.6687C105.914 77.9595 106.329 76.2502 107.315 74.8517Z" fill="#99B9EE"/>
<path fill-rule="evenodd" clip-rule="evenodd" d="M357.958 174.923L360.397 181.294L376.743 178.548L376.951 171.763C379.338 170.624 381.569 169.225 383.593 167.619L389.82 170.416L399.42 156.949L394.75 151.977C395.632 149.542 396.203 146.952 396.514 144.363L402.897 141.928L400.147 125.612L393.349 125.405C392.207 123.022 390.806 120.795 389.198 118.775L392 112.56L378.508 102.977L373.526 107.639C371.087 106.758 368.492 106.189 365.898 105.878L363.459 99.5068L347.112 102.252L346.905 109.037C344.518 110.177 342.286 111.575 340.262 113.181L334.035 110.384L324.435 123.851L329.105 128.824C328.223 131.258 327.652 133.848 327.341 136.438L320.958 138.872L323.709 155.188L330.507 155.395C331.648 157.778 333.049 160.005 334.658 162.025L331.856 168.241L345.348 177.823L350.33 173.162C352.769 174.042 355.363 174.612 357.958 174.923ZM350.433 170.157L349.603 169.846L345.14 174.146L335.54 167.308L338.083 161.611L337.512 160.937C335.592 158.658 333.983 156.12 332.79 153.427L332.427 152.598L326.199 152.391L324.227 140.789L330.039 138.561L330.091 137.629C330.351 134.677 331.025 131.776 332.063 129.031L332.375 128.202L328.119 123.644L334.865 114.062L340.574 116.6L341.248 116.03C343.532 114.113 346.074 112.508 348.773 111.316L349.603 110.954L349.811 104.738L361.435 102.77L363.666 108.571L364.6 108.623C367.558 108.882 370.464 109.555 373.214 110.591L374.045 110.902L378.611 106.655L388.212 113.492L385.669 119.189L386.24 119.863C388.16 122.142 389.768 124.68 390.962 127.373L391.325 128.202L397.552 128.409L399.524 140.012L393.712 142.239L393.66 143.171C393.401 146.124 392.726 149.024 391.688 151.769L391.377 152.598L395.632 157.156L388.782 166.739L383.074 164.201L382.399 164.77C380.116 166.687 377.573 168.293 374.875 169.484L374.045 169.846L373.837 176.062L362.213 178.03L359.982 172.229L359.048 172.126C356.09 171.867 353.184 171.193 350.433 170.157ZM361.85 159.176C358.062 159.176 354.273 158.037 350.952 155.706C342.494 149.698 340.522 137.94 346.541 129.497C352.561 121.054 364.341 119.086 372.799 125.094C381.258 131.103 383.23 142.86 377.21 151.303C373.526 156.431 367.714 159.176 361.85 159.176ZM348.929 131.206C351.99 126.855 356.92 124.524 361.902 124.524C365.067 124.524 368.285 125.457 371.139 127.477C374.616 129.963 376.899 133.589 377.625 137.784C378.3 141.98 377.314 146.175 374.875 149.646C369.789 156.794 359.826 158.451 352.665 153.375C349.188 150.889 346.905 147.263 346.178 143.068C345.504 138.872 346.438 134.677 348.929 131.206Z" fill="#99B9EE"/>
<path d="M107.73 297.836C105.239 290.843 102.385 282.97 105.55 274.89C109.806 264.013 100.776 258.419 92.8365 253.394C85.9867 249.147 79.5519 245.107 81.7314 238.425C84.1185 231.174 83.9628 225.579 81.2644 221.902C78.9811 218.794 74.9334 217.137 69.5366 217.188C65.2295 217.24 61.3894 211.957 57.2898 206.415C52.4638 199.888 47.5339 193.155 41.3068 194.657C40.217 194.916 39.3348 195.537 38.8159 196.522C36.6364 200.614 40.0613 210.351 43.7457 220.711C47.6896 231.899 52.2043 244.537 49.2464 249.924C46.029 255.829 51.8411 261.216 58.0163 266.965C64.5548 273.025 71.9755 279.914 70.0036 288.564C68.1355 296.644 67.7203 299.649 68.862 301.41C69.7441 302.808 71.5604 303.119 74.3107 303.637C76.1789 303.999 78.566 304.414 81.472 305.346C93.9782 309.231 97.6107 317.311 97.6626 317.415L97.8183 317.777L98.1815 317.726C104.201 316.793 107.73 315.084 109.39 312.339C109.494 312.183 109.546 312.028 109.65 311.873C111.414 308.195 109.702 303.378 107.73 297.836Z" fill="#CEDCF3"/>
<path d="M75.7638 282.4C77.8395 285.612 79.3444 288.409 79.1887 292.345C79.0849 296.023 78.5141 299.649 78.2028 303.274C78.1509 304.051 78.099 304.777 78.0471 305.502C77.0092 304.621 76.0232 303.741 74.9854 302.86C74.5183 302.808 74.0513 302.808 73.5324 302.808C74.9854 304 76.4903 305.294 77.9433 306.589C77.7876 309.127 77.7357 311.665 77.7357 314.203C77.7357 315.706 77.6838 317.311 77.7876 318.813C76.4384 317.985 75.0373 317.156 73.74 316.327C69.6923 313.841 65.9041 311.51 62.9981 310.267C60.7667 309.335 58.2758 308.506 55.8888 307.729C49.6616 305.709 43.2788 303.637 41.1511 299.234C40.0614 296.955 40.1652 294.21 41.4625 290.895C44.7318 282.349 41.6701 280.898 36.5327 278.412C32.7964 276.599 27.7109 274.165 22.6253 268.001C20.3939 265.308 18.422 262.977 16.6576 260.957C11.4165 254.793 8.51044 251.426 8.87369 249.458C8.97748 248.992 9.23695 248.577 9.75588 248.163C10.0153 247.956 10.3267 247.749 10.7418 247.541C12.7138 246.454 14.6857 247.282 16.9171 248.215C19.9269 249.458 23.6113 251.063 28.7487 248.422C32.7964 246.35 37.3111 244.434 40.0095 245.987C41.8776 247.023 42.9674 249.717 43.3307 254.119C43.4344 255.518 43.9015 256.502 44.6799 257.072C45.8215 257.901 47.5859 257.797 49.6097 257.383C51.0108 259.299 52.8271 260.231 55.0066 261.008C58.0683 262.096 60.3516 263.08 62.583 265.567C67.3571 270.953 71.9756 276.444 75.7638 282.4Z" fill="#CEDCF3"/>
<path d="M59.21 290.947C56.0964 288.875 53.398 283.851 50.8033 278.982C47.2746 272.352 43.5902 265.515 38.5566 265.67C30.4612 265.877 23.2481 256.347 23.1443 256.295L22.4697 256.813C22.7811 257.227 30.0461 266.758 38.5566 266.551C43.0713 266.447 46.6519 273.025 50.0249 279.448C52.6715 284.369 55.4218 289.496 58.691 291.724C60.663 293.019 64.2955 295.66 68.6026 299.027C68.6026 298.664 68.6026 298.302 68.6026 297.939C64.8144 294.78 61.4414 292.397 59.21 290.947Z" fill="white"/>
<path d="M332.686 355.123C332.686 355.123 337.357 343.52 328.846 327.049C320.284 310.578 313.382 313.116 333.983 300.426C354.585 287.735 334.087 247.852 351.627 242.776C369.167 237.7 384.372 173.11 397.708 181.345C411.045 189.581 393.245 221.229 402.794 230.759C412.29 240.29 413.587 252.358 393.92 262.148C374.252 271.937 407.879 309.335 381.206 320.73C354.533 332.125 362.213 376.825 332.686 355.123Z" fill="#CEDCF3"/>
<path d="M340.833 367.398C340.781 367.243 337.927 352.429 347.008 333.265C356.245 313.737 360.656 292.397 358.84 276.133C357.854 267.328 363.51 263.909 368.959 260.594C374.356 257.331 379.909 253.912 379.597 245.262C379.338 237.441 382.659 219.105 382.763 218.328L383.956 218.535C383.904 218.742 380.531 237.545 380.791 245.21C381.102 254.586 375.238 258.16 369.582 261.578C364.185 264.841 359.151 267.949 360.034 275.978C361.902 292.397 357.439 313.996 348.098 333.731C339.225 352.533 341.975 366.984 342.027 367.139L340.833 367.398Z" fill="white"/>
<path d="M411.667 271.161C419.088 267.638 426.976 269.244 422.876 276.651C418.777 284.058 412.653 284.628 413.795 290.481C414.936 296.334 417.946 302.705 408.294 306.434C398.642 310.112 394.127 309.49 388.263 320.316C382.348 331.141 380.324 339.169 370.205 336.58C360.086 333.938 368.492 320.626 373.733 315.032C373.733 315.032 380.843 309.024 380.739 298.198C380.635 287.373 376.172 280.121 390.184 280.847C404.195 281.468 406.634 273.543 411.667 271.161Z" fill="#CEDCF3"/>
<path d="M368.596 344.142C369.011 342.743 378.767 309.231 386.759 305.605C394.906 301.876 399.317 292.138 401.237 286.699C403.728 279.603 414.366 278.205 414.781 278.153L414.937 279.344C414.833 279.344 404.61 280.691 402.378 287.062C399.991 293.951 395.425 302.963 387.278 306.693C379.805 310.111 369.893 344.142 369.79 344.504L368.596 344.142Z" fill="white"/>
<path d="M111.57 317.156C95.5869 313.168 95.3793 304.569 95.1718 296.282C95.0161 289.496 94.8604 283.074 86.1943 279.137C74.7259 273.906 74.4665 264.22 74.207 255.673C73.9994 249.302 73.8437 243.294 69.0696 240.031C57.6012 232.21 47.8972 213.252 47.7935 213.045L48.6756 212.579C48.7794 212.786 58.3277 231.484 69.6404 239.202C74.8297 242.724 75.0373 248.992 75.193 255.622C75.4524 264.272 75.7119 273.284 86.6094 278.205C95.7945 282.4 96.0021 289.445 96.1577 296.23C96.3653 304.517 96.5729 312.391 111.829 316.172L111.57 317.156Z" fill="white"/>
<path d="M90.0344 309.49H352.561V120.329C352.561 117.636 350.382 115.408 347.631 115.408H94.9643C92.2658 115.408 90.0344 117.584 90.0344 120.329V309.49Z" fill="#E0E9F8"/>
<rect x="342.789" y="274.224" width="243.482" height="149.329" transform="rotate(-180 342.789 274.224)" fill="#0B4870" stroke="white" stroke-width="0.5"/>
<path d="M352.561 281.468H221.324H90.1381L61.3894 388.635H222.206H381.258L352.561 281.468Z" fill="#E0E9F8"/>
<path d="M100.05 300.27H116.188C116.863 300.27 117.382 300.788 117.226 301.358L115.67 308.35C115.566 308.765 115.151 309.076 114.632 309.076H98.2335C97.5589 309.076 97.04 308.558 97.1956 307.936L99.0119 300.944C99.1157 300.581 99.5308 300.27 100.05 300.27Z" fill="#99B9EE" stroke="#7AA7F1" stroke-width="0.5"/>
<path d="M123.557 300.27H135.752L134.144 309.127H121.689L123.557 300.27Z" fill="#99B9EE" stroke="#7AA7F1" stroke-width="0.5"/>
<path d="M141.824 300.27H154.019L152.773 309.127H140.319L141.824 300.27Z" fill="#99B9EE" stroke="#7AA7F1" stroke-width="0.5"/>
<path d="M160.142 300.27H172.337L171.403 309.127H158.948L160.142 300.27Z" fill="#99B9EE" stroke="#7AA7F1" stroke-width="0.5"/>
<path d="M178.408 300.27H190.603L190.032 309.127H177.578L178.408 300.27Z" fill="#99B9EE" stroke="#7AA7F1" stroke-width="0.5"/>
<path d="M196.674 300.27H208.869L208.662 309.127H196.207L196.674 300.27Z" fill="#99B9EE" stroke="#7AA7F1" stroke-width="0.5"/>
<path d="M343.013 300.27H324.694L326.666 309.127H345.296L343.013 300.27Z" fill="#99B9EE" stroke="#7AA7F1" stroke-width="0.5"/>
<path d="M318.623 300.27H306.428L308.037 309.127H320.491L318.623 300.27Z" fill="#99B9EE" stroke="#7AA7F1" stroke-width="0.5"/>
<path d="M300.357 300.27H288.162L289.407 309.127H301.862L300.357 300.27Z" fill="#99B9EE" stroke="#7AA7F1" stroke-width="0.5"/>
<path d="M282.038 300.27H269.844L270.778 309.127H283.232L282.038 300.27Z" fill="#99B9EE" stroke="#7AA7F1" stroke-width="0.5"/>
<path d="M263.772 300.27H251.577L252.148 309.127H264.602L263.772 300.27Z" fill="#99B9EE" stroke="#7AA7F1" stroke-width="0.5"/>
<path d="M245.506 300.27H233.311L233.518 309.127H245.973L245.506 300.27Z" fill="#99B9EE" stroke="#7AA7F1" stroke-width="0.5"/>
<path d="M214.993 300.27H227.188L227.343 309.127H214.993V300.27Z" fill="#99B9EE" stroke="#7AA7F1" stroke-width="0.5"/>
<path d="M94.7047 315.706H120.132L118.679 324.822H92.7328L94.7047 315.706Z" fill="#99B9EE" stroke="#7AA7F1" stroke-width="0.5"/>
<path d="M346.957 315.706H315.51L317.274 324.822H349.396L346.957 315.706Z" fill="#99B9EE" stroke="#7AA7F1" stroke-width="0.5"/>
<path d="M309.178 315.706H296.62L298.021 324.822H310.891L309.178 315.706Z" fill="#99B9EE" stroke="#7AA7F1" stroke-width="0.5"/>
<path d="M290.289 315.706H277.731L278.769 324.822H291.639L290.289 315.706Z" fill="#99B9EE" stroke="#7AA7F1" stroke-width="0.5"/>
<path d="M271.4 315.706H258.842L259.569 324.822H272.386L271.4 315.706Z" fill="#99B9EE" stroke="#7AA7F1" stroke-width="0.5"/>
<path d="M252.511 315.706H239.953L240.317 324.822H253.134L252.511 315.706Z" fill="#99B9EE" stroke="#7AA7F1" stroke-width="0.5"/>
<path d="M90.8647 331.918H116.915L114.995 340.982H88.4777L90.8647 331.918Z" fill="#99B9EE" stroke="#7AA7F1" stroke-width="0.5"/>
<path d="M123.402 331.918H136.427L134.922 340.982H121.637L123.402 331.918Z" fill="#99B9EE" stroke="#7AA7F1" stroke-width="0.5"/>
<path d="M142.965 331.918H155.99H240.576L240.939 340.982H141.512L142.965 331.918Z" fill="#99B9EE" stroke="#7AA7F1" stroke-width="0.5"/>
<path d="M247.115 331.918H260.14L260.866 340.982H247.582L247.115 331.918Z" fill="#99B9EE" stroke="#7AA7F1" stroke-width="0.5"/>
<path d="M266.626 331.918H279.651L280.741 340.982H267.457L266.626 331.918Z" fill="#99B9EE" stroke="#7AA7F1" stroke-width="0.5"/>
<path d="M286.19 331.918H299.215L300.616 340.982H287.383L286.19 331.918Z" fill="#99B9EE" stroke="#7AA7F1" stroke-width="0.5"/>
<path d="M305.702 331.918H318.727L320.491 340.982H307.258L305.702 331.918Z" fill="#99B9EE" stroke="#7AA7F1" stroke-width="0.5"/>
<path d="M325.213 331.918H351.264L353.651 340.982H327.133L325.213 331.918Z" fill="#99B9EE" stroke="#7AA7F1" stroke-width="0.5"/>
<path d="M233.674 315.706H221.168V324.822H233.882L233.674 315.706Z" fill="#99B9EE" stroke="#7AA7F1" stroke-width="0.5"/>
<path d="M214.785 315.706H202.175L201.812 324.822H214.681L214.785 315.706Z" fill="#99B9EE" stroke="#7AA7F1" stroke-width="0.5"/>
<path d="M195.896 315.706H183.286L182.56 324.822H195.429L195.896 315.706Z" fill="#99B9EE" stroke="#7AA7F1" stroke-width="0.5"/>
<path d="M177.007 315.706H164.397L163.307 324.822H176.177L177.007 315.706Z" fill="#99B9EE" stroke="#7AA7F1" stroke-width="0.5"/>
<path d="M158.118 315.706H145.508L144.055 324.822H156.924L158.118 315.706Z" fill="#99B9EE" stroke="#7AA7F1" stroke-width="0.5"/>
<path d="M139.229 315.706H126.619L124.855 324.822H137.672L139.229 315.706Z" fill="#99B9EE" stroke="#7AA7F1" stroke-width="0.5"/>
<path d="M100.62 294.728L102.696 286.855H108.612L106.692 294.728H100.62Z" fill="#99B9EE" stroke="#7AA7F1" stroke-width="0.5"/>
<path d="M114.528 286.855H126.359L124.751 294.728H112.66L114.528 286.855Z" fill="#99B9EE" stroke="#7AA7F1" stroke-width="0.5"/>
<path d="M132.327 286.855H144.159L142.81 294.728H130.77L132.327 286.855Z" fill="#99B9EE" stroke="#7AA7F1" stroke-width="0.5"/>
<path d="M150.075 286.855H161.906L160.868 294.728H148.829L150.075 286.855Z" fill="#99B9EE" stroke="#7AA7F1" stroke-width="0.5"/>
<path d="M167.822 286.855H179.654L178.927 294.728H166.888L167.822 286.855Z" fill="#99B9EE" stroke="#7AA7F1" stroke-width="0.5"/>
<path d="M185.569 286.855H197.401L196.986 294.728H184.947L185.569 286.855Z" fill="#99B9EE" stroke="#7AA7F1" stroke-width="0.5"/>
<path d="M203.317 286.855H215.148L215.045 294.728H203.005L203.317 286.855Z" fill="#99B9EE" stroke="#7AA7F1" stroke-width="0.5"/>
<path d="M221.064 286.855H232.896L233.103 294.728H221.064V286.855Z" fill="#99B9EE" stroke="#7AA7F1" stroke-width="0.5"/>
<path d="M238.812 286.855H250.643L251.162 294.728H239.123L238.812 286.855Z" fill="#99B9EE" stroke="#7AA7F1" stroke-width="0.5"/>
<path d="M256.559 286.855H268.443L269.221 294.728H257.182L256.559 286.855Z" fill="#99B9EE" stroke="#7AA7F1" stroke-width="0.5"/>
<path d="M274.358 286.855H286.19L287.332 294.728H275.292L274.358 286.855Z" fill="#99B9EE" stroke="#7AA7F1" stroke-width="0.5"/>
<path d="M292.106 286.855H303.937L305.39 294.728H293.351L292.106 286.855Z" fill="#99B9EE" stroke="#7AA7F1" stroke-width="0.5"/>
<path d="M309.853 286.855H321.685L323.449 294.728H311.41L309.853 286.855Z" fill="#99B9EE" stroke="#7AA7F1" stroke-width="0.5"/>
<path d="M327.601 286.855H339.432L341.508 294.728H329.469L327.601 286.855Z" fill="#99B9EE" stroke="#7AA7F1" stroke-width="0.5"/>
<path d="M372.903 396.974H69.7442C65.1257 396.974 61.3894 393.245 61.3894 388.635H381.258C381.258 393.245 377.522 396.974 372.903 396.974Z" fill="#CEDCF3"/>
<path d="M258.531 353.983C258.22 352.119 256.559 350.72 254.691 350.72H221.376H188.008C186.088 350.72 184.48 352.119 184.168 353.983L180.017 379.105C179.602 381.487 181.47 383.663 183.857 383.663H221.324H258.79C261.229 383.663 263.046 381.487 262.631 379.105L258.531 353.983Z" fill="#CEDCF3"/>
<rect x="115.721" y="137.577" width="27.14" height="2.79701" fill="#F7F7F7"/>
<rect x="150.49" y="158.451" width="19.5637" height="2.79701" fill="#F7F7F7"/>
<rect x="173.115" y="158.451" width="12.9733" height="2.79701" fill="#F7F7F7"/>
<rect x="116.033" y="210.973" width="12.9733" height="2.79701" fill="#F7F7F7"/>
<rect x="188.683" y="158.451" width="31.3953" height="2.79701" fill="#F7F7F7"/>
<rect x="116.033" y="200.458" width="20.1864" height="2.79701" fill="#F7F7F7"/>
<rect x="144.159" y="221.384" width="12.2986" height="2.79701" fill="#F7F7F7"/>
<rect x="116.033" y="221.384" width="24.3897" height="2.79701" fill="#F7F7F7"/>
<rect x="116.033" y="231.847" width="13.4403" height="2.79701" fill="#F7F7F7"/>
<rect x="148.155" y="137.577" width="19.2523" height="2.79701" fill="#F7F7F7"/>
<rect x="148.155" y="168.914" width="19.2523" height="2.79701" fill="#F7F7F7"/>
<rect x="138.502" y="179.325" width="8.25099" height="2.79701" fill="#F7F7F7"/>
<rect x="130.303" y="189.944" width="18.4739" height="2.79701" fill="#F7F7F7"/>
<rect x="151.579" y="189.944" width="25.5314" height="2.79701" fill="#F7F7F7"/>
<rect x="116.033" y="179.429" width="19.2523" height="2.79701" fill="#F7F7F7"/>
<rect x="116.033" y="189.944" width="11.4165" height="2.79701" fill="#F7F7F7"/>
<rect x="150.646" y="179.429" width="10.7937" height="2.79701" fill="#F7F7F7"/>
<rect x="116.396" y="242.258" width="10.7937" height="2.79701" fill="#F7F7F7"/>
<rect x="115.981" y="158.451" width="19.2523" height="2.79701" fill="#F7F7F7"/>
<rect x="133.002" y="210.973" width="19.2523" height="2.79701" fill="#F7F7F7"/>
<rect x="133.261" y="231.847" width="19.2523" height="2.79701" fill="#F7F7F7"/>
<rect x="167.459" y="231.847" width="19.2523" height="2.79701" fill="#F7F7F7"/>
<rect x="115.981" y="168.914" width="27.4514" height="2.79701" fill="#F7F7F7"/>
<rect x="244.624" y="137.577" width="19.2523" height="2.79701" fill="#F7F7F7"/>
<rect x="176.021" y="242.258" width="19.2523" height="2.79701" fill="#F7F7F7"/>
<rect x="269.844" y="137.577" width="12.8695" height="2.79701" fill="#F7F7F7"/>
<rect x="313.486" y="148.04" width="12.8695" height="2.79701" fill="#F7F7F7"/>
<rect x="172.596" y="137.577" width="24.5454" height="2.79701" fill="#F7F7F7"/>
<rect x="268.183" y="148.04" width="24.5454" height="2.79701" fill="#F7F7F7"/>
<rect x="238.085" y="158.451" width="24.5454" height="2.79701" fill="#F7F7F7"/>
<rect x="206.171" y="168.914" width="24.5454" height="2.79701" fill="#F7F7F7"/>
<rect x="265.692" y="158.451" width="17.4361" height="2.79701" fill="#F7F7F7"/>
<rect x="215.252" y="137.577" width="24.5454" height="2.79701" fill="#F7F7F7"/>
<rect x="187.282" y="168.914" width="14.3744" height="2.79701" fill="#F7F7F7"/>
<rect x="176.021" y="211.128" width="14.3744" height="2.79701" fill="#F7F7F7"/>
<rect x="201.656" y="137.577" width="8.97749" height="2.79701" fill="#F7F7F7"/>
<rect x="172.596" y="168.914" width="8.97749" height="2.79701" fill="#F7F7F7"/>
<rect x="298.644" y="148.04" width="8.97749" height="2.79701" fill="#F7F7F7"/>
<rect x="115.721" y="148.04" width="14.063" height="2.79701" fill="#F7F7F7"/>
<rect x="153.24" y="200.51" width="11.1051" height="2.79701" fill="#F7F7F7"/>
<rect x="133.261" y="148.04" width="4.51469" height="2.79701" fill="#F7F7F7"/>
<rect x="226.357" y="148.04" width="37.5186" height="2.79701" fill="#F7F7F7"/>
<rect x="190.396" y="231.847" width="37.5186" height="2.79701" fill="#F7F7F7"/>
<rect x="141.097" y="148.04" width="4.61848" height="2.79701" fill="#F7F7F7"/>
<rect x="210.634" y="148.04" width="12.2467" height="2.79701" fill="#F7F7F7"/>
<rect x="222.932" y="158.451" width="12.2467" height="2.79701" fill="#F7F7F7"/>
<rect x="159.83" y="242.258" width="12.2467" height="2.79701" fill="#F7F7F7"/>
<rect x="181.314" y="148.04" width="26.1022" height="2.79701" fill="#F7F7F7"/>
<rect x="156.976" y="211.128" width="15.2565" height="2.79701" fill="#F7F7F7"/>
<rect x="156.042" y="231.847" width="7.62827" height="2.79701" fill="#F7F7F7"/>
<rect x="168.6" y="148.04" width="8.97749" height="2.79701" fill="#F7F7F7"/>
<rect x="138.399" y="158.451" width="8.97749" height="2.79701" fill="#F7F7F7"/>
<rect x="140.163" y="200.51" width="8.97749" height="2.79701" fill="#F7F7F7"/>
<rect x="149.556" y="148.04" width="15.6717" height="2.79701" fill="#F7F7F7"/>
<path d="M280.949 169.018C280.949 169.018 285.515 176.735 287.435 177.978C290.03 179.688 288.421 181.397 287.176 181.449C285.93 181.449 279.599 181.915 278.198 180.309C276.797 178.704 276.123 173.99 274.825 172.747C273.528 171.504 272.179 166.583 275.448 165.392C278.302 164.304 280.949 169.018 280.949 169.018Z" fill="#347AF0"/>
<path d="M278.925 165.651C278.925 165.651 284.166 174.715 285.048 176.01C285.93 177.357 283.336 177.357 281.727 176.735C280.118 176.114 276.071 169.639 275.5 168.448C274.825 167.049 275.396 165.444 275.396 165.444L278.925 165.651Z" fill="#FCBAA2"/>
<path d="M273.632 170.468L274.877 179.739L275.5 179.791L275.293 173.109L273.632 170.468Z" fill="#347AF0"/>
<path d="M235.646 169.018C235.646 169.018 240.213 176.735 242.133 177.978C244.728 179.688 243.119 181.397 241.873 181.449C240.628 181.449 234.297 181.915 232.896 180.309C231.495 178.704 230.82 173.99 229.523 172.747C228.226 171.504 226.824 166.428 230.146 165.392C233.052 164.46 235.646 169.018 235.646 169.018Z" fill="#347AF0"/>
<path d="M233.934 165.651C233.934 165.651 238.863 174.664 239.798 176.01C240.68 177.357 238.085 177.357 236.476 176.735C234.868 176.114 230.82 169.639 230.249 168.448C229.575 167.049 230.145 165.444 230.145 165.444L233.934 165.651Z" fill="#FCBAA2"/>
<path d="M228.381 170.468L229.575 179.739L230.249 179.791L230.042 173.109L228.381 170.468Z" fill="#347AF0"/>
<path d="M215.408 98.7299L256.715 117.532C256.715 117.532 261.333 119.034 261.852 124.162C263.461 140.115 275.396 165.392 275.396 165.392C279.236 167.257 278.925 165.651 278.925 165.651C276.486 157.882 273.58 125.975 272.49 113.181C272.283 110.488 272.127 108.623 272.075 108.001C272.075 107.587 271.608 107.069 270.83 106.448C265.173 101.838 241.822 92.3589 241.822 92.3589C224.437 91.8928 215.408 98.7299 215.408 98.7299Z" fill="#FCBAA2"/>
<path d="M207.624 106.81C208.921 117.946 224.852 116.703 224.852 116.703H244.157C244.157 116.703 239.071 127.995 237.099 137.474C235.023 147.574 230.094 165.392 230.094 165.392C230.094 165.392 230.405 166.014 233.934 165.651C233.934 165.651 249.086 135.505 254.898 127.891C256.144 126.286 259.724 117.377 260.347 112.093C260.555 110.332 260.451 108.934 259.776 108.364C259.102 107.794 257.545 106.758 255.521 105.463C249.45 101.63 238.967 95.7774 233.103 94.4825C225.267 92.7214 212.865 89.4064 212.865 89.4064C212.865 89.4064 206.327 95.6738 207.624 106.81Z" fill="#FCBAA2"/>
<path d="M220.753 20.9313C220.753 20.9313 217.847 15.4409 219.248 9.6397C220.649 3.78669 226.098 -2.01452 234.037 0.678897C241.977 3.37232 248.412 9.48431 243.638 16.6322C238.863 23.7284 247.945 26.9915 245.61 30.3583C243.274 33.7251 244.157 37.2991 245.143 38.076C246.128 38.853 249.294 41.65 248.931 45.0167C248.567 48.3317 233.518 35.3308 233.518 35.3308C233.518 35.3308 225.371 18.8077 220.753 20.9313Z" fill="#0B4870"/>
<path d="M244.987 90.9604C244.987 90.9604 243.793 96.7616 212.917 89.4583C212.917 89.4583 223.244 86.0398 244.987 90.9604Z" fill="#EB4747"/>
<path d="M212.554 91.064C212.087 91.9963 211.62 92.8769 211.101 93.8092C222.361 94.12 233.674 94.4825 244.935 94.7933C243.171 88.8367 243.741 80.7565 244.053 74.6445C244.416 67.134 248.567 61.9543 248.152 54.392C250.384 54.7546 250.747 54.8064 252.978 55.169C249.553 45.4312 248.412 40.6141 237.774 36.8848C234.297 35.6417 232.065 35.4345 228.329 35.7453C216.031 36.7812 212.346 36.8848 206.275 48.021C215.719 49.5231 214.162 52.8899 217.017 62.3169C218.418 66.875 219.871 72.0028 219.144 76.8199C218.418 81.5334 212.554 86.7649 212.554 91.064Z" fill="white"/>
<path d="M232.169 39.2156C227.136 38.2833 228.225 35.4863 228.225 35.4863C228.225 35.4863 228.433 33.9324 228.537 31.9123C228.537 31.3944 228.589 30.8764 228.589 30.3066C228.589 29.4779 228.537 28.6491 228.433 27.8204C228.018 24.4536 237.566 26.4737 237.566 26.4737C237.566 26.4737 236.995 33.3108 238.345 35.3309C239.642 37.4028 237.203 40.1998 232.169 39.2156Z" fill="#FCBAA2"/>
<path d="M222.569 35.4864C222.569 35.4864 232.74 47.1925 236.476 49.8859C236.476 49.8859 240.784 46.0011 238.137 35.7454C238.137 35.7454 233.259 33.2592 222.569 35.4864Z" fill="#FCBAA2"/>
<path d="M222.88 7.30888C222.88 7.30888 217.587 17.461 222.828 27.0434C228.07 36.6257 238.345 22.8478 238.967 21.2422C239.642 19.6365 243.171 10.4685 236.165 7.72326C229.159 4.92624 224.385 4.56367 222.88 7.30888Z" fill="#FCBAA2"/>
<path d="M233.051 28.0792C233.051 28.0792 232.117 30.0992 228.537 31.9121C228.537 31.3941 228.589 30.8762 228.589 30.3064C228.589 30.3064 231.027 30.0474 233.051 28.0792Z" fill="#FCBAA2"/>
<path d="M179.757 81.9478C179.757 81.9478 177.266 83.0355 176.073 82.5693C174.879 82.0514 173.063 81.9478 172.492 81.9478C171.714 81.9478 169.275 81.0672 169.327 82.0514C169.379 82.9837 173.271 83.657 174.049 83.9678C174.828 84.2786 171.662 85.9879 171.351 86.7648C171.039 87.5418 174.672 92.6179 176.696 91.1675C178.719 89.7172 179.809 86.8166 180.224 86.6095C180.64 86.4023 181.729 85.6253 181.729 85.6253L179.757 81.9478Z" fill="#FCBAA2"/>
<path d="M171.766 86.2986C171.766 86.2986 165.902 91.1675 165.798 91.8408C165.694 92.5142 166.006 92.8249 166.576 92.3588C167.147 91.9444 172.388 87.8007 172.388 87.8007C172.388 87.8007 166.524 94.7414 166.317 95.2594C166.213 95.5702 166.784 96.1917 167.095 95.9845C167.407 95.7774 173.686 89.251 173.686 89.251C173.686 89.251 168.185 95.7256 168.185 96.2435C168.133 96.6579 168.808 97.1241 169.275 96.6579C169.742 96.1917 175.191 90.4941 175.191 90.4941C175.191 90.4941 171.506 95.4666 171.766 95.9327C171.921 96.1917 172.388 96.7615 173.271 95.4666C174.153 94.1717 176.644 91.2711 176.644 91.2711L171.766 86.2986Z" fill="#FCBAA2"/>
<path d="M242.133 116.651H224.852C224.852 116.651 208.921 117.946 207.624 106.758C206.327 95.622 212.865 89.4064 212.865 89.4064C212.865 89.4064 221.272 91.6337 228.641 93.3948C232.325 92.6178 236.736 92.0999 241.925 92.2552C241.925 92.2552 273.061 102.511 272.127 107.95C272.127 108.001 259.102 101.061 242.133 116.651Z" fill="#0B4870"/>
<path d="M230.872 97.3832L263.876 96.8652L247.218 105.308L230.872 97.3832Z" fill="#F2F2F2"/>
<path d="M241.147 93.1359C241.147 93.1359 233.726 95.9847 224.645 93.3949L224.229 90.0281L242.963 91.0641L241.147 93.1359Z" fill="white"/>
<path d="M247.218 105.308L230.872 98.9887V97.3831L248.516 103.702L247.218 105.308Z" fill="#D3D3D3"/>
<path d="M240.991 94.7414C240.887 95.9327 242.133 96.8133 243.274 96.3471L245.195 95.5184C245.765 95.2594 246.129 94.6896 246.025 94.0681C245.246 89.0956 243.534 69.7237 246.025 66.3569C246.959 65.1138 247.53 64.0261 247.841 63.0937C249.502 67.341 251.525 72.8315 252.356 75.7839L267.924 96.5025L273.165 97.8492C266.626 82.1548 261.385 73.8674 261.385 73.8674C260.347 71.1222 257.441 62.8347 254.847 55.4796C253.186 50.8179 251.733 46.5188 250.903 44.2398C250.488 43.0485 249.709 42.0643 248.619 41.4428C246.181 39.9925 242.185 37.7134 238.552 35.9523H238.5C238.397 35.9005 238.293 35.8487 238.137 35.7969C245.091 46.208 242.392 75.7839 240.991 94.7414C240.991 94.6896 240.991 94.6896 240.991 94.7414Z" fill="#347AF0"/>
<path d="M215.252 36.6258C213.021 36.9884 207.52 42.3235 204.614 47.7103C201.293 53.8741 197.868 60.8666 195.325 63.1457C190.655 67.393 177.526 82.3622 176.903 81.9996C176.644 81.8442 180.484 86.4541 181.003 86.6613C181.262 86.7649 202.538 68.3253 204.614 65.5283C206.534 62.8867 211.723 51.6986 213.28 51.9576C213.384 52.2166 215.304 56.3085 217.068 62.2651C217.12 62.3687 217.12 62.4723 217.172 62.5759C218.418 66.7196 218.314 71.2777 217.639 76.3538C217.12 80.1868 214.266 86.4541 212.554 89.5101C212.346 89.8727 212.398 90.5979 212.606 91.1158C212.761 91.4266 212.917 91.6856 213.176 91.7892L219.455 94.12L220.908 94.638C221.946 95.0524 223.088 94.8452 223.918 94.2236C224.593 93.7575 225.112 92.9805 225.216 92.0482C226.617 81.3781 228.381 70.449 229.782 66.3571C235.957 48.3319 227.395 34.7612 227.395 34.7612C227.395 34.7612 217.224 35.9007 215.252 36.6258Z" fill="#347AF0"/>
<path d="M247.218 105.308L257.026 78.5809L288.629 79.0989L279.288 103.754L247.218 105.308Z" fill="#CEDCF3"/>
<path d="M267.145 90.3905C266.159 92.307 266.47 94.4307 267.82 95.0522C269.169 95.7256 270.985 94.6896 271.971 92.7732C272.957 90.8567 272.646 88.733 271.296 88.1115C269.947 87.4381 268.079 88.4741 267.145 90.3905Z" fill="#F2F0F0"/>
<path d="M247.945 39.8891C245.61 36.367 243.949 33.57 243.741 28.5457C243.586 25.2307 242.859 20.7244 240.576 18.4972C242.963 12.2816 240.161 10.4169 239.019 8.39683C237.618 5.8588 227.239 -0.253191 223.14 6.16958C219.04 12.5406 220.493 19.2223 220.493 19.2223C220.908 15.7001 224.541 10.9349 224.541 10.9349C225.112 14.6124 232.74 20.6208 236.061 23.0553C236.009 23.1071 235.957 23.2106 235.957 23.2624C234.089 25.9559 236.424 28.6493 236.84 31.4981C237.255 34.3469 229.004 42.0128 238.189 45.8457C247.374 49.7305 250.28 43.3595 247.945 39.8891Z" fill="#0B4870"/>
<path d="M80.9012 341.604C80.9012 341.604 80.6936 343.779 70.5226 343.779C60.3515 343.779 45.562 341.138 45.562 341.138L69.1733 338.859C69.1733 338.859 78.2546 338.392 80.9012 341.604Z" fill="#0E538C"/>
<path d="M55.0065 342.381C49.2464 342.381 46.8074 345.333 44.5242 346.266C42.2409 347.198 39.9576 348.596 39.9576 348.545C41.2549 346.007 43.0711 345.955 44.0052 345.126C44.9393 344.297 44.6798 344.712 42.656 344.556C41.5144 344.453 39.4386 346.576 37.9856 347.768C36.6883 348.752 35.9099 348.855 35.9099 348.855C35.9099 348.855 37.4148 346.732 39.283 345.023C41.5662 342.951 44.4204 341.241 45.095 340.931C46.3404 340.413 50.1805 340.309 52.8789 340.672C55.9925 341.086 59.158 342.381 55.0065 342.381Z" fill="#0E538C"/>
<path d="M45.4582 341.034C45.4582 341.034 41.0473 342.174 40.2689 342.795C39.75 343.21 37.4667 345.644 37.4667 345.644C37.4667 345.644 39.1273 345.385 40.0613 344.453C41.0473 343.469 45.4582 341.034 45.4582 341.034Z" fill="#0E538C"/>
<path d="M72.5462 337.149C72.5462 337.149 83.6513 337.875 82.8729 344.712C82.4578 348.596 79.915 349.943 76.542 349.632C70.3148 349.114 63.2574 348.182 63.2574 348.182L60.0919 337.564L72.5462 337.149Z" fill="#0E538C"/>
<path d="M74.8815 338.082L85.779 303.015C85.779 303.015 87.3877 297.888 90.0342 298.82C93.8224 300.218 91.9543 304.414 91.6429 306.9C90.9683 311.976 91.4354 314.204 87.9066 326.428C85.7271 333.99 83.859 342.692 81.9908 347.664C80.6935 351.083 78.4621 346.162 75.0891 344.815C68.7581 342.277 74.8815 338.082 74.8815 338.082Z" fill="#0E538C"/>
<path d="M75.7119 283.954C77.8395 290.066 84.4299 293.226 90.5014 290.998C96.521 288.771 99.7383 281.986 97.6107 275.874C95.4831 269.762 88.8927 266.602 82.8212 268.83C76.8016 271.057 73.5842 277.842 75.7119 283.954Z" fill="#0E538C"/>
<path d="M63.7765 284.524C67.0976 289.497 73.7399 290.74 78.566 287.321L77.8914 281.468C82.7174 277.998 83.911 271.161 80.5898 266.188L78.3065 262.821C74.9854 257.849 68.3431 256.606 63.517 260.024L61.3375 261.578C56.5115 265.049 55.3179 271.886 58.6391 276.858L63.7765 284.524Z" fill="#0B4870"/>
<path d="M59.4174 268.208C59.9882 269.037 60.6109 269.814 61.3374 270.591C66.1116 275.77 72.4944 277.739 76.5421 275.615C78.4102 278.153 80.5378 280.173 82.4579 281.727C84.6893 283.54 90.3975 284.265 90.3975 284.265C93.7186 287.891 81.2643 309.076 80.3821 308.972C78.5659 308.817 76.2307 297.111 77.9432 292.863C78.7216 290.947 79.967 288.668 79.6037 287.632C78.3064 284.058 76.4902 284.679 76.4902 284.679C76.4902 284.679 74.1031 287.476 72.2349 287.373C70.3149 287.217 66.9937 284.213 66.8381 284.161C66.2672 283.695 65.7483 283.126 65.2813 282.452L60.2995 274.993C59.0022 272.922 58.6909 270.435 59.4174 268.208Z" fill="#FCBAA2"/>
<path d="M97.507 357.454C97.507 357.454 93.4593 362.322 92.2139 362.84C90.5533 363.566 85.4678 362.012 85.4678 362.012C85.4678 362.012 84.1186 339.687 82.5618 330.986C81.005 322.284 78.7217 320.005 78.6179 317.259C78.4622 312.857 74.7778 311.096 75.4005 307.677C76.0232 304.258 77.113 292.035 77.4763 293.64C80.6417 307.522 84.5337 295.971 85.4159 294.158C85.8829 293.174 97.507 357.454 97.507 357.454Z" fill="#F2F0F0"/>
<path d="M79.0848 289.496C79.0848 289.496 74.1549 294.883 74.5182 297.007C74.8295 299.131 72.3906 305.761 74.8295 314.98C77.5799 325.495 79.0329 332.643 79.5518 339.532C80.0707 346.421 77.7356 352.74 78.6696 361.183C79.3961 367.813 80.901 368.175 80.901 368.175C80.901 368.175 83.8589 368.901 85.9347 366.311C88.0104 363.773 84.8968 341.189 83.8589 335.595C82.8211 329.95 79.4999 316.793 78.6177 312.908C77.528 308.143 77.7356 303.274 77.7875 301.876C78.0469 296.955 78.6696 293.899 79.1886 292.034C79.2405 291.775 79.4999 288.875 79.0848 289.496Z" fill="#0E538C"/>
<path d="M87.6991 295.816C90.3976 303.585 98.8042 307.573 106.484 304.725C114.165 301.876 118.212 293.278 115.514 285.508C112.815 277.739 104.409 273.75 96.7285 276.599C89.0484 279.396 85.0007 288.046 87.6991 295.816Z" fill="#0E538C"/>
<path d="M61.2856 429.347L64.0359 451.257L52.1005 456.903L45.5101 458.353L57.238 449.289L53.3979 429.503L61.2856 429.347Z" fill="#FCBAA2"/>
<path d="M64.8144 454.572L62.2197 455.245L60.4554 453.64L50.907 458.405L42.4485 460.425C42.4485 460.425 42.3447 459.752 42.6042 459.389C43.642 457.991 49.6097 454.935 49.6097 454.935C49.6097 454.935 49.7135 456.955 50.5438 457.007C51.3741 457.058 58.691 453.225 60.4035 452.189C63.3095 450.377 63.8803 449.185 64.0879 449.341C64.7106 449.651 64.8144 454.572 64.8144 454.572Z" fill="#0E538C"/>
<path d="M32.485 398.891L22.9886 417.538L9.91157 416.916L3.37305 415L17.8512 412.565L25.7389 396.612L32.485 398.891Z" fill="#FCBAA2"/>
<path d="M22.2102 420.853L19.6156 420.231L18.7853 417.952L7.00556 417.797L0 416.139C0 416.139 0.830288 415.207 1.34922 414.948C2.90601 414.274 8.45856 413.964 8.45856 413.964C8.45856 413.964 7.88774 415.569 8.61424 415.984C9.34074 416.45 17.4361 416.709 19.408 416.554C22.8329 416.295 23.8189 415.569 23.9227 415.777C24.2859 416.502 22.2102 420.853 22.2102 420.853Z" fill="#0E538C"/>
<path d="M101.762 343.106L94.7046 346.266L94.7565 355.952L46.1328 348.027C46.1328 348.027 41.5143 346.525 38.5564 354.139C34.353 364.912 23.6631 398.425 23.6631 398.425L30.4092 405.728L51.6334 367.865C51.6334 367.865 95.1198 388.946 109.442 384.388C114.943 382.627 119.146 372.578 118.368 362.426C117.745 354.449 116.188 347.146 116.188 347.146L101.762 343.106Z" fill="#347AF0"/>
<path d="M95.5869 384.181L60.7667 381.591L63.7765 437.117L53.5017 437.479L45.9253 372.423C45.9253 372.423 47.9491 362.737 54.5914 364.187C61.2856 365.689 77.3725 378.431 95.5869 384.181Z" fill="#347AF0"/>
<path d="M119.042 398.114C119.042 398.114 100.776 377.654 96.0539 366.104C90.3975 352.274 90.8646 334.922 89.8267 329.173C87.9067 318.606 85.5715 298.095 85.1563 295.557C84.6893 293.019 86.298 290.17 86.298 290.17C86.298 290.17 85.1044 282.504 88.5294 283.333C93.4592 284.524 98.3372 287.217 100.05 288.046C103.267 289.496 109.857 328.137 110.221 330.001C111.57 336.735 116.5 342.847 120.028 349.114C128.331 363.98 130.459 381.539 130.459 381.539C130.459 381.539 129.421 394.384 119.042 398.114Z" fill="#0B4870"/>
<path d="M100.205 344.608C100.205 344.608 100.05 347.094 88.4256 346.525C76.8015 345.903 59.7806 342.018 59.7806 342.018L86.7131 340.775C86.7131 340.775 97.0398 340.827 100.205 344.608Z" fill="#FCBAA2"/>
<path d="M68.9138 343.365C63.3613 343.261 60.9742 346.11 58.7947 346.991C56.6152 347.871 54.3838 349.166 54.3838 349.166C55.6292 346.732 57.3936 346.68 58.3277 345.903C59.2098 345.126 59.0023 345.54 57.0303 345.333C55.8887 345.23 53.9168 347.25 52.5156 348.389C51.2702 349.373 50.4918 349.425 50.4918 349.425C50.4918 349.425 51.9448 347.353 53.7611 345.696C55.9925 343.727 58.6909 342.07 59.3655 341.811C60.5591 341.345 64.2435 341.293 66.89 341.707C69.8479 342.122 72.9096 343.468 68.9138 343.365Z" fill="#FCBAA2"/>
<path d="M59.625 341.863C59.625 341.863 55.3698 342.899 54.6433 343.468C54.1243 343.883 51.9448 346.214 51.9448 346.214C51.9448 346.214 53.5016 345.955 54.4357 345.074C55.3698 344.245 59.625 341.863 59.625 341.863Z" fill="#FFE3CA"/>
<path d="M90.9165 341.863L108.145 332.798C108.145 332.798 108.197 343.779 108.301 347.975C108.404 352.17 110.169 358.075 106.848 358.956C103.527 359.836 101.814 359.37 105.239 361.39C108.664 363.358 107.886 365.43 106.588 367.14C105.291 368.849 110.947 386.252 109.598 387.237C104.253 380.503 98.4929 372.164 96.002 366.104C92.8365 358.231 91.5911 349.218 90.9165 341.863Z" fill="#0B4870"/>
<path d="M96.4691 337.46L95.7945 302.445C95.7945 302.445 95.8464 291.516 96.0539 288.305C96.2615 284.99 101.918 288.875 101.918 288.875C101.918 288.875 109.857 299.597 110.013 325.443C110.117 342.743 109.183 351.756 101.191 351.031C93.7706 350.357 85.3121 349.218 85.3121 349.218L81.6277 339.635L96.4691 337.46Z" fill="#0B4870"/>
<path d="M94.7048 355.952L35.3911 348.545L35.5468 347.302L94.8605 354.708L94.7048 355.952Z" fill="#CEDCF3"/>
<path d="M68.7065 351.393C68.6027 352.377 67.8243 353.103 66.994 352.999L36.5847 349.218C35.7544 349.114 34.7165 348.337 33.99 345.748L22.2622 315.447C22.4179 314.203 23.4039 313.582 24.2341 313.893L55.3181 318.762C56.1483 319.072 56.7192 319.797 57.0305 321.144L68.7065 351.393Z" fill="#CEDCF3"/>
<path d="M64.8664 352.222L65.1778 352.274L94.8606 356.003C93.7189 356.469 91.9027 356.625 89.8789 356.366L65.0221 353.258L64.7107 353.206L39.854 350.099C37.8302 349.84 36.1177 349.218 35.0798 348.545L64.8664 352.222Z" fill="#CEDCF3"/>
<path d="M96.4692 337.46L95.7946 302.446C95.7946 302.446 96.3135 299.493 97.3514 296.852C97.6108 300.684 99.3752 328.292 99.5828 331.918C99.8422 335.854 103.06 336.269 103.734 337.564C104.461 338.807 103.838 339.066 101.451 338.6C99.1157 338.082 99.946 338.496 100.465 339.739C100.984 341.034 99.6865 340.671 95.12 339.014C91.7988 337.823 85.416 339.014 82.1986 339.739L96.4692 337.46Z" fill="#0B4870"/>
<path d="M301.55 251.53C295.842 253.032 285.308 258.315 283.076 267.379C279.755 281.002 286.397 300.943 275.915 320.523C272.542 326.738 333.879 335.129 333.879 335.129L345.711 266.343C345.711 266.343 330.922 251.426 327.912 250.39C321.633 248.318 312.967 248.525 301.55 251.53Z" fill="#347AF0"/>
<path d="M345.763 266.395C347.891 271.886 353.287 304.569 347.268 312.287C346.593 313.168 350.381 314.566 349.707 318.606C349.603 319.28 348.461 322.543 348.461 322.543L343.584 323.838L332.945 311.562C332.945 311.562 337.253 304.88 342.909 279.552C344.569 272.093 345.296 265.152 345.763 266.395Z" fill="#5A97FE"/>
<path d="M305.494 305.45C305.494 305.45 310.631 318.969 323.034 322.594C325.161 323.216 326.511 325.599 325.473 326.376C324.124 327.36 322.359 327.567 319.246 327.567C312.759 327.567 303.937 325.495 297.866 319.383C288.836 310.37 285.982 306.227 286.916 301.72C287.747 297.11 305.494 305.45 305.494 305.45Z" fill="#FCBAA2"/>
<path d="M284.841 262.821C282.194 267.276 280.689 274.424 280.741 284.679C280.741 292.604 287.383 305.605 288.369 309.594C288.525 310.267 288.94 313.116 288.94 313.116L296.257 320.574L310.943 310.267L306.48 303.171L305.131 303.326C305.131 303.326 304.3 299.39 304.508 297.888C304.716 296.385 300.46 275.926 298.333 262.821C297.139 255.207 287.435 258.419 284.841 262.821Z" fill="#5A97FE"/>
<path d="M298.022 303.016L302.329 301.669L304.093 301.203C304.197 302.446 305.235 303.274 305.235 303.274L301.862 303.689L297.97 304.932L293.403 308.195L298.022 303.016Z" fill="#0E538C"/>
<path d="M322.1 322.543L329.572 320.419C329.572 320.419 331.7 323.371 331.285 324.097C330.87 324.822 331.285 329.173 331.285 329.173L327.652 332.384L324.695 331.348C324.695 331.348 324.487 330.001 325.473 329.898C326.511 329.742 324.798 329.017 324.279 328.706C323.76 328.344 319.453 326.065 322.1 322.543Z" fill="#FCBAA2"/>
<path d="M310.58 250.856C309.749 253.291 310.995 256.036 313.382 256.865L317.637 258.419C320.024 259.299 322.619 257.953 323.449 255.518L327.237 244.33C328.068 241.896 326.822 239.15 324.435 238.27L320.18 236.716C317.793 235.835 315.198 237.182 314.368 239.617L310.58 250.856Z" fill="#FF957E"/>
<path d="M329.157 260.698C328.742 262.303 327.082 263.288 325.525 262.821L312.707 259.144C311.151 258.678 310.216 257.02 310.632 255.363L315.873 235.732C316.288 234.126 317.949 233.142 319.505 233.608L332.323 237.234C333.88 237.7 334.814 239.358 334.399 241.015L329.157 260.698Z" fill="#FCBAA2"/>
<path d="M335.8 239.047C335.903 238.943 334.606 237.493 335.281 234.644C336.163 230.811 333.309 229.257 331.181 229.205C329.936 229.154 325.732 231.174 323.501 231.847C321.27 232.52 321.477 231.64 317.429 230.915C314.731 230.397 314.108 231.899 313.174 233.971C312.24 236.094 312.136 244.175 312.136 244.175C312.5 244.693 313.07 245.107 313.434 244.693C313.797 244.278 315.25 237.804 316.443 235.887C317.585 233.971 322.255 237.027 324.798 238.529C327.289 240.031 329.521 240.29 333.516 239.461C333.983 239.979 334.398 240.549 334.398 240.808C334.398 241.326 333.257 245.003 333.257 245.003C333.257 245.003 335.488 243.605 336.111 242.517C336.422 242.155 336.526 240.393 335.8 239.047Z" fill="#0B4870"/>
<path d="M314.679 251.271C314.524 251.789 314.005 252.151 313.486 251.996L310.735 251.219C310.216 251.063 309.905 250.494 310.061 249.976L311.462 244.744C311.618 244.226 312.136 243.864 312.655 244.019L315.406 244.796C315.925 244.951 316.236 245.521 316.08 246.039L314.679 251.271Z" fill="#FCBAA2"/>
<path d="M312.967 246.298C312.967 246.298 310.891 254.016 310.216 256.606C309.594 258.937 309.126 264.323 321.84 267.949C329.365 270.073 330.61 264.272 331.129 262.407C331.492 260.957 331.077 256.243 330.506 255.207C330.506 255.155 329.676 258.419 329.676 258.419C329.676 258.419 328.95 254.845 325.369 253.861C319.609 252.203 317.326 255.363 314.835 254.534C312.863 253.861 312.292 250.131 312.967 246.298Z" fill="#0B4870"/>
<path d="M321.633 258.16L325.577 259.299C326.096 259.455 326.666 259.144 326.77 258.574L326.926 258.004L321.062 256.347L320.906 256.917C320.803 257.486 321.114 258.004 321.633 258.16Z" fill="#FCBAA2"/>
<path d="M384.164 336.632C382.348 341.863 350.381 361.079 339.64 359.94L307.31 361.546C279.859 358.075 266.834 313.945 266.834 313.945C267.923 302.86 295.012 318.917 304.664 323.89C319.92 331.763 329.624 332.177 329.624 332.177C339.847 333.265 351.679 325.081 364.6 324.822C378.767 324.459 387.07 328.396 384.164 336.632Z" fill="#0B4870"/>
<path d="M313.901 331.348C313.901 331.296 313.901 331.296 313.901 331.348V329.898L369.478 328.862V330.26V330.312L369.322 330.571C368.648 331.814 367.351 332.021 365.898 332.073L317.533 333.005C316.08 333.057 314.783 332.85 314.056 331.659L313.901 331.348Z" fill="#CEDCF3"/>
<path d="M327.289 331.296C327.289 331.296 327.289 331.348 327.289 331.296L327.133 331.555C326.926 331.866 326.666 332.125 326.355 332.28L317.897 332.436C316.495 332.488 315.25 332.332 314.523 331.348L314.368 331.141C314.368 331.141 314.368 331.141 314.316 331.089V330.416L327.185 330.157L327.289 331.296Z" fill="#CEDCF3"/>
<path d="M334.813 330.778L362.576 330.26V329.276L334.762 329.846L334.813 330.778Z" fill="#CEDCF3"/>
<path d="M327.6 329.587L334.295 301.202C334.45 300.477 335.177 299.856 335.903 299.804L374.927 299.079C375.653 299.079 376.069 299.649 375.913 300.426L369.219 328.81L327.6 329.587Z" fill="#CEDCF3"/>
<path d="M302.432 368.849C306.272 369.522 309.23 364.912 309.23 364.912L319.194 356.832L317.066 351.342L297.658 360.354C297.658 360.354 298.54 368.175 302.432 368.849Z" fill="#FCBAA2"/>
<path d="M309.179 364.602C309.179 364.602 309.179 365.068 308.452 367.191C307.726 369.315 306.791 370.04 305.857 370.351C302.121 371.49 299.475 370.921 290.549 372.682C281.623 374.443 278.925 373.096 276.33 368.849C273.736 364.602 276.434 361.235 280.793 360.924C287.072 360.458 290.601 361.183 293.87 360.665C297.295 360.147 297.503 359.318 299.526 358.023C301.395 356.832 303.159 363.98 301.395 365.637C299.786 367.088 307.881 367.295 309.179 364.602Z" fill="#347AF0"/>
<path d="M307.31 368.693C303.626 369.833 300.927 369.263 292.002 371.024C283.076 372.785 280.378 371.439 277.783 367.191C276.59 365.223 276.538 363.462 277.212 362.115C275.24 363.514 274.566 365.948 276.33 368.849C278.925 373.096 281.623 374.443 290.549 372.682C299.474 370.921 302.173 371.49 305.857 370.351C306.584 370.144 307.31 369.626 307.933 368.434C307.725 368.538 307.518 368.642 307.31 368.693Z" fill="white"/>
<path d="M309.178 364.757C309.178 364.653 309.178 364.653 309.178 364.653C309.178 364.705 309.127 364.757 309.075 364.809C309.127 364.757 309.178 364.757 309.178 364.757Z" fill="#E9D6B8"/>
<path d="M289.926 367.917C289.667 368.02 289.407 367.45 289.303 366.674C289.148 365.068 288.784 363.514 288.265 361.908C288.006 361.131 288.006 360.458 288.317 360.354C288.629 360.251 289.148 360.821 289.355 361.597C289.874 363.151 290.186 364.757 290.341 366.311C290.445 367.088 290.186 367.813 289.926 367.917Z" fill="white"/>
<path d="M292.676 367.399C292.365 367.45 292.106 366.932 292.002 366.207C291.846 364.705 291.483 363.203 290.964 361.753C290.705 361.028 290.705 360.406 291.068 360.354C291.379 360.302 291.898 360.872 292.158 361.597C292.625 363.048 292.988 364.55 293.144 366C293.195 366.725 292.988 367.347 292.676 367.399Z" fill="white"/>
<path d="M295.582 367.295C295.271 367.347 294.96 366.777 294.856 366C294.597 364.446 294.233 362.944 293.662 361.39C293.403 360.613 293.403 359.992 293.714 359.992C294.078 359.992 294.597 360.561 294.856 361.338C295.427 362.841 295.79 364.394 295.998 365.897C296.101 366.622 295.894 367.243 295.582 367.295Z" fill="white"/>
<path d="M303.107 355.641C303.107 355.641 371.45 326.583 375.342 326.531C388.523 326.427 385.513 340.205 378.819 346.732C370.931 354.398 310.943 368.434 310.943 368.434L303.107 355.641Z" fill="#0B4870"/>
<path d="M330.195 360.717L311.514 342.381L319.505 334.249L339.847 356.418L330.195 360.717Z" fill="#FCBAA2"/>
<path d="M334.035 346.317C334.035 346.317 286.553 301.306 283.388 299.959C272.542 295.401 265.848 307.781 266.211 312.08C266.73 317.622 314.939 362.685 314.939 362.685L334.035 346.317Z" fill="#0B4870"/>
<path d="M362.161 362.115C363.251 363.151 363.459 366.311 363.459 366.311C363.459 366.311 347.631 372.526 342.079 372.63C340.626 372.682 338.031 372.06 335.54 371.335C335.125 371.231 334.139 370.092 333.724 369.988C332.945 369.781 332.79 370.506 332.167 370.299C330.507 369.729 329.261 369.263 329.209 369.16C325.836 361.804 326.978 358.179 326.978 358.179C326.978 358.179 334.243 360.354 332.997 358.645C330.351 355.019 337.979 351.342 339.64 353.258C346.49 360.976 358.944 359.059 362.161 362.115Z" fill="#347AF0"/>
<path d="M363.043 363.669C358.165 365.689 347.942 369.781 345.919 369.937C337.564 370.558 331.752 367.502 327.86 365.689C328.223 366.725 328.638 367.916 329.209 369.16C329.261 369.263 330.455 369.729 332.167 370.299C332.842 370.506 332.997 369.729 333.724 369.988C334.139 370.092 335.073 371.231 335.54 371.335C338.031 372.06 340.626 372.63 342.079 372.63C347.631 372.526 363.458 366.311 363.458 366.311C363.458 366.311 363.458 364.86 363.043 363.669Z" fill="white"/>
<path d="M351.886 358.904C352.042 359.214 351.419 359.525 350.537 359.732C348.721 360.095 346.957 360.665 345.192 361.39C344.31 361.753 343.532 361.856 343.428 361.545C343.324 361.235 343.895 360.665 344.777 360.302C346.489 359.577 348.306 359.059 350.07 358.697C350.9 358.438 351.731 358.593 351.886 358.904Z" fill="white"/>
<path d="M348.306 357.609C348.461 357.92 347.839 358.334 346.957 358.593C345.192 359.111 343.48 359.836 341.767 360.717C340.937 361.131 340.159 361.287 340.055 360.976C339.951 360.665 340.522 359.992 341.352 359.577C343.013 358.748 344.725 358.023 346.49 357.557C347.372 357.195 348.202 357.298 348.306 357.609Z" fill="white"/>
<path d="M344.881 356.469C344.985 356.78 344.414 357.246 343.584 357.557C341.871 358.23 340.211 359.059 338.602 360.043C337.823 360.561 337.097 360.717 336.993 360.354C336.889 360.043 337.408 359.318 338.239 358.8C339.847 357.816 341.508 356.987 343.168 356.366C343.999 356.107 344.777 356.159 344.881 356.469Z" fill="white"/>
</svg>
