<svg width="357" height="264" viewBox="0 0 357 264" fill="none" xmlns="http://www.w3.org/2000/svg">
<path d="M326.931 96.0377C309.255 74.9483 282.599 69.8681 266.327 64.9512C228.177 53.4228 186.747 25.4836 143.818 20.509C100.889 15.5344 57.9211 35.3032 30.2011 110.437C15.3296 150.78 21.827 185.195 44.6331 201.104C129.929 260.756 215.029 264.524 290.608 208.702C305.534 197.658 320.181 184.274 332.705 162.082C348.12 134.985 340.85 112.706 326.931 96.0377Z" fill="#F1F5FB"/>
<g style="mix-blend-mode:multiply">
<path d="M72.1888 141.366L71.8178 141.551L71.0757 141.922C70.6118 142.2 70.148 142.385 69.6842 142.663C68.8493 143.126 67.9216 143.682 67.0867 144.145C65.417 145.165 63.8399 146.276 62.3557 147.481C59.3872 149.797 56.6042 152.392 54.0996 155.171C51.5949 157.951 49.3685 160.916 47.3277 164.066C45.2868 167.216 43.617 170.459 42.04 173.795C40.463 177.13 39.2571 180.559 38.1439 183.987C37.68 185.747 37.1235 187.415 36.7524 189.176L36.103 191.77L35.6392 194.364C34.8043 198.719 34.3405 203.074 34.0622 207.429V190.936C34.6188 187.6 35.732 183.524 37.309 178.891C39.6281 171.849 43.1532 163.696 47.0494 154.893C50.2034 147.666 52.8936 141.366 55.3983 136.177C57.9029 130.988 60.4076 127.19 62.4485 125.244C60.4076 127.282 56.697 129.877 52.5225 134.231C48.4409 138.586 43.9881 144.516 40.6485 152.114C36.8452 160.823 34.8971 169.347 34.0622 176.667V140.995C34.6188 138.957 35.732 136.455 37.309 133.861C39.6281 129.784 42.8749 125.336 46.2145 120.24C48.9047 116.071 50.76 111.994 52.337 108.566C53.8213 105.138 55.0272 102.451 56.0476 100.968C55.0272 102.451 52.5225 104.026 49.554 106.435C46.5855 108.844 43.1532 111.994 40.3703 116.534C36.9379 121.908 34.9898 127.653 34.155 132.471V118.851C35.0826 112.55 37.1235 103.099 37.1235 92.0734C37.0307 80.3989 33.5984 71.5967 33.5984 67.4272C33.5984 71.5967 30.0733 80.3989 30.0733 92.0734C30.0733 103.007 32.1141 112.55 33.0418 118.851V133.675C32.1141 125.707 30.0733 116.349 25.8988 106.713C22.281 98.4666 17.6427 91.9807 13.2827 87.1627C9.01548 82.3447 5.11933 79.2871 2.70742 77.2486C5.02656 79.2871 7.624 83.5492 10.3142 89.1085C13.0044 94.6677 15.9729 101.617 19.4052 109.492C23.5797 119.129 27.1975 128.023 29.7022 135.714C31.372 140.717 32.3924 145.257 32.949 148.871V171.849C32.6707 168.977 32.2069 166.197 31.743 163.418C30.6299 157.117 29.0528 151.002 27.1048 145.072C25.1567 139.049 22.9303 133.212 20.2401 127.468C18.9414 124.595 17.4571 121.723 15.9729 118.943C14.3959 116.164 12.7261 113.384 10.5925 110.419C13.0972 113.755 13.4682 117.275 13.0972 120.704C12.9116 122.372 12.5406 124.039 12.0767 125.614C11.6129 127.19 10.9636 128.672 10.407 130.062C9.57207 132.1 9.66484 133.583 10.407 134.88C11.0563 136.177 12.1695 137.196 13.3755 138.215C15.6946 140.254 18.1993 142.107 16.4367 144.887C14.7669 147.666 12.7261 150.261 12.9116 153.226C13.0044 154.708 13.561 156.376 14.9525 158.229C16.344 160.175 18.5703 162.306 21.8171 165.085C23.858 166.846 25.5278 168.792 27.1048 170.737C28.589 172.683 29.795 174.629 30.8154 176.389C31.743 178.15 32.3924 179.632 32.8562 180.744C32.8562 180.837 32.8562 180.837 32.949 180.837V207.336C32.8562 206.78 29.9805 190.195 20.1474 181.022C10.9636 172.405 2.33636 169.718 0.109985 168.421C2.42912 169.718 15.4163 185.747 19.6835 191.307C26.2699 199.831 33.1345 210.486 33.1345 222.346V258.111H34.155V212.895C34.3405 211.876 34.6188 210.857 34.9898 209.838C35.732 208.077 36.5669 206.502 37.68 205.02C38.7932 203.537 40.0919 202.333 41.3907 201.128C42.6894 200.016 44.0809 198.997 45.3796 198.07C47.2349 196.773 48.0698 195.291 48.2553 193.716C48.5336 192.141 48.1626 190.473 47.977 188.898C47.7915 188.064 47.6987 187.23 47.606 186.489C47.5132 185.747 47.5132 184.913 47.606 184.265C47.7915 182.875 48.4409 181.763 50.0179 181.115C53.1719 179.91 56.4187 179.262 58.4595 176.945C59.0161 176.389 59.48 175.648 59.7583 174.814C60.1293 173.98 60.4076 172.961 60.6859 171.756C61.1497 169.347 61.428 166.197 61.7991 161.657C62.2629 156.098 64.6748 150.631 67.2723 146.925C69.7769 143.219 72.4671 141.088 72.8382 140.902L72.1888 141.366Z" fill="#CEDCF3"/>
<path d="M299.094 165.925L299.372 166.111L299.929 166.389C300.3 166.574 300.671 166.759 301.042 166.945C301.691 167.315 302.433 167.686 303.083 168.149C304.381 168.983 305.587 169.817 306.793 170.743C309.112 172.597 311.339 174.635 313.287 176.766C315.235 178.99 316.997 181.306 318.574 183.715C320.151 186.124 321.543 188.719 322.749 191.313C323.955 193.907 324.883 196.594 325.81 199.374C326.181 200.764 326.645 202.061 326.923 203.451L327.387 205.489L327.758 207.527C328.408 210.956 328.779 214.384 329.057 217.812V204.84C328.593 202.246 327.758 199.003 326.552 195.39C324.697 189.83 322.007 183.437 318.946 176.488C316.441 170.836 314.307 165.833 312.359 161.756C310.411 157.679 308.463 154.714 306.793 153.139C308.37 154.714 311.339 156.753 314.586 160.181C317.74 163.609 321.265 168.242 323.955 174.264C326.923 181.121 328.5 187.792 329.15 193.537V165.555C328.686 163.98 327.851 162.034 326.645 159.996C324.79 156.845 322.285 153.324 319.688 149.248C317.554 145.912 316.07 142.762 314.864 140.075C313.658 137.388 312.73 135.257 311.895 134.052C312.73 135.257 314.678 136.461 316.997 138.407C319.317 140.26 322.007 142.762 324.233 146.283C326.923 150.545 328.5 154.992 329.15 158.791V148.321C328.408 143.41 326.831 135.905 326.831 127.288C326.831 118.023 329.521 111.166 329.521 107.924C329.521 111.166 332.211 118.116 332.211 127.288C332.211 135.905 330.634 143.41 329.892 148.321V159.996C330.634 153.695 332.211 146.375 335.551 138.778C338.426 132.292 342.044 127.196 345.476 123.397C348.816 119.598 351.97 117.189 353.733 115.614C351.877 117.189 349.836 120.525 347.703 124.972C345.569 129.327 343.25 134.793 340.56 141.001C337.313 148.599 334.437 155.548 332.489 161.663C331.191 165.647 330.356 169.168 329.892 172.041V190.108C330.17 187.885 330.448 185.661 330.819 183.437C331.654 178.526 332.953 173.708 334.437 168.983C335.922 164.258 337.777 159.718 339.818 155.177C340.838 152.954 341.951 150.73 343.157 148.506C344.456 146.283 345.662 144.152 347.425 141.835C345.476 144.522 345.198 147.209 345.476 149.896C345.662 151.193 345.94 152.491 346.311 153.788C346.682 154.992 347.146 156.197 347.61 157.309C348.259 158.884 348.167 160.088 347.61 161.107C347.146 162.127 346.219 162.96 345.291 163.702C343.436 165.277 341.488 166.759 342.879 168.983C344.178 171.114 345.755 173.245 345.662 175.562C345.569 176.766 345.198 178.063 344.085 179.546C343.065 181.028 341.209 182.789 338.705 184.92C337.035 186.309 335.736 187.792 334.53 189.367C333.324 190.85 332.397 192.425 331.654 193.815C330.912 195.204 330.448 196.409 330.077 197.243V197.335V217.997C330.17 217.534 332.397 204.562 340.189 197.335C347.425 190.572 354.196 188.441 356.052 187.421C354.289 188.441 343.992 201.042 340.653 205.396C335.458 212.067 330.077 220.499 330.077 229.765V257.932H329.335V222.352C329.15 221.518 328.964 220.684 328.686 219.943C328.129 218.553 327.387 217.349 326.552 216.144C325.625 215.032 324.697 214.013 323.677 213.087C322.656 212.16 321.543 211.419 320.523 210.678C319.038 209.658 318.482 208.547 318.296 207.249C318.111 206.045 318.389 204.748 318.574 203.451C318.667 202.802 318.76 202.153 318.853 201.505C318.946 200.856 318.946 200.3 318.853 199.744C318.76 198.633 318.203 197.799 316.905 197.335C314.4 196.409 311.895 195.853 310.226 194C309.762 193.537 309.483 192.981 309.205 192.332C308.927 191.683 308.649 190.85 308.463 189.923C308.092 188.07 307.906 185.568 307.535 182.047C307.164 177.6 305.309 173.43 303.268 170.466C301.227 167.501 299.186 165.925 298.815 165.74L299.094 165.925Z" fill="#CEDCF3"/>
<path d="M123.581 237.447C125.065 243.84 127.384 251.067 129.703 257.831H168.201C169.036 255.052 169.964 251.994 170.706 248.844C175.437 230.405 170.428 214.561 165.975 207.334C161.522 200.107 157.626 191.583 164.491 181.02C171.355 170.458 172.005 162.304 172.005 162.304C170.984 158.32 167.923 156.93 159.852 153.131C159.852 153.131 159.388 152.946 158.646 152.761C156.977 159.71 153.359 165.269 146.958 166.381C138.609 167.863 131.095 162.767 127.292 153.873C123.581 154.984 119.499 156.096 117.551 157.208C117.551 157.208 127.755 179.353 129.703 191.861C131.559 204.277 118.943 217.804 123.581 237.447Z" fill="#F1F5FB"/>
<path d="M146.865 166.288C153.266 165.176 156.884 159.617 158.554 152.668C155.863 151.741 149.555 149.61 147.793 148.684C145.566 147.572 146.216 138.492 146.216 138.492L134.342 142.013C134.342 146.089 134.342 149.24 134.342 150.815C134.342 151.649 131.002 152.668 127.106 153.872C131.002 162.675 138.516 167.771 146.865 166.288Z" fill="#CEDCF3"/>
<path d="M146.216 138.77L134.342 142.106C134.342 145.256 134.342 147.85 134.342 149.611C139.351 152.298 144.917 157.301 146.865 166.474C153.266 165.362 156.791 159.803 158.554 152.854C155.863 151.927 149.555 149.796 147.793 148.869C145.566 147.85 146.216 138.77 146.216 138.77Z" fill="#99B9EE"/>
<path d="M153.544 193.621C148.257 195.197 143.247 197.05 140.65 197.05C135.455 197.05 127.663 189.73 124.045 194.177C120.427 198.625 119.87 201.59 122.746 203.628C125.622 205.574 134.713 202.887 139.073 203.721C141.021 204.091 147.607 204.462 154.658 204.369C155.214 201.59 155.121 196.494 153.544 193.621Z" fill="#CEDCF3"/>
<path d="M172.19 162.397C170.984 157.486 160.873 166.474 163.377 174.72C165.511 181.762 164.769 191.212 164.769 191.212L174.695 201.219C177.942 197.05 173.21 166.288 172.19 162.397Z" fill="#F1F5FB"/>
<path d="M168.016 191.213C164.212 190.657 158.739 192.047 153.544 193.714C155.121 196.494 155.214 201.683 154.658 204.462C163.377 204.37 172.747 203.536 174.602 201.219C174.602 201.127 179.055 192.788 168.016 191.213Z" fill="#F1F5FB"/>
<path d="M131.652 125.057C129.611 129.134 129.796 142.847 135.548 144.051C140.557 145.163 143.433 140.252 143.433 140.252V131.172C143.433 131.172 140.557 129.69 140.186 126.169C139.908 123.389 138.238 123.111 138.238 123.111C138.238 123.111 134.806 125.15 131.652 125.057Z" fill="#CEDCF3"/>
<path d="M122.653 191.768C120.056 186.487 118.293 179.908 116.809 176.202C113.933 169.16 113.47 159.339 117.458 157.115C124.787 153.316 127.941 166.288 128.405 169.994C128.869 173.7 129.889 182.502 132.672 185.653L122.653 191.768Z" fill="#F1F5FB"/>
<path d="M155.214 146.46C150.205 143.31 155.771 126.169 147.422 119.59C140.557 114.124 129.611 118.201 129.611 128.485C129.611 132.655 129.611 146.831 129.611 153.039C132.301 152.205 134.342 151.371 134.342 150.722V143.681V143.495C129.796 140.623 129.703 128.763 131.651 124.964C134.806 125.057 138.238 123.019 138.238 123.019C138.238 123.019 139.908 123.297 140.186 126.076C140.557 129.597 143.433 131.08 143.433 131.08V140.16C143.433 148.684 145.474 158.042 150.39 158.598C155.307 159.154 156.142 152.668 159.852 153.131C159.759 153.131 160.223 149.518 155.214 146.46Z" fill="#E0E9F8"/>
<path d="M129.797 179.353C127.106 183.059 122.839 186.302 122.654 191.769C124.973 196.401 127.941 200.015 132.116 199.552C138.238 198.903 140.372 191.676 141.114 185.097C137.032 185.375 131.837 182.132 129.797 179.353Z" fill="#F1F5FB"/>
<path d="M139.073 145.904C137.867 146.46 133.785 150.074 133.785 150.908C133.785 151.834 135.64 158.598 135.64 160.636C135.64 162.675 133.785 171.755 131.28 177.036C130.909 177.87 130.446 178.611 129.889 179.353C131.93 182.132 137.125 185.375 141.206 185.004C141.485 182.039 141.577 179.26 141.577 177.221C141.577 177.221 142.041 162.119 142.691 161.1C143.34 160.08 143.34 158.505 143.34 157.115C143.34 154.521 143.34 154.336 143.34 154.336C143.34 154.336 144.268 154.243 144.36 152.668C144.36 152.575 144.36 152.575 144.36 152.483C144.175 150.722 140.186 145.348 139.073 145.904Z" fill="#CEDCF3"/>
<path d="M239.26 152.576C239.26 167.215 239.26 196.587 239.26 196.587C239.26 196.587 253.917 197.05 253.546 196.587C253.082 196.124 253.546 176.11 253.546 176.11L239.26 152.576Z" fill="#99B9EE"/>
<path d="M268.295 201.219C269.501 209.466 268.759 218.824 268.295 222.345C267.832 225.866 257.349 257.554 257.349 257.554H282.86L289.91 224.013L280.633 198.347L268.295 201.219Z" fill="url(#paint0_linear)"/>
<path d="M268.295 201.219C269.501 209.466 268.759 218.824 268.295 222.345C267.832 225.866 255.308 257.831 255.308 257.831H282.86L289.91 224.013L280.633 198.347L268.295 201.219Z" fill="#F1F5FB"/>
<path d="M298.351 192.51C302.062 204.277 318.945 208.076 314.307 227.07C310.967 240.783 304.103 257.925 304.103 257.925H272.284C272.284 257.925 282.303 228.09 282.303 224.106C282.303 220.121 275.995 199.83 275.995 199.83L298.351 192.51Z" fill="#F1F5FB"/>
<path d="M244.455 142.569C240.744 144.329 237.312 152.298 240.744 159.803C244.176 167.308 244.64 165.918 245.939 171.848C247.238 177.685 246.774 180.928 257.442 188.248C268.203 195.567 267.832 197.513 268.388 201.219C268.852 204.925 299.094 204.184 298.63 190.193C298.166 176.203 298.908 160.081 289.91 152.483C280.819 144.885 244.455 142.569 244.455 142.569Z" fill="#99B9EE"/>
<path d="M240.651 125.335V167.308C240.651 167.308 255.865 159.154 255.772 151.186C255.679 143.218 248.907 125.428 248.907 125.428H240.651V125.335Z" fill="#CEDCF3"/>
<path d="M251.412 150.445C251.412 150.445 253.453 153.688 254.102 155.17C254.752 156.56 251.69 162.861 252.711 168.142C253.731 173.516 260.317 172.589 261.802 168.142C262.266 166.845 263.472 157.301 263.472 157.301V141.643L251.412 150.445Z" fill="#F1F5FB"/>
<path d="M254.102 155.17C258.369 150.352 262.822 170.644 255.772 171.663C255.772 171.663 255.772 171.663 255.865 171.663L256.885 171.755C258.926 171.755 261.152 170.366 261.894 168.049C262.358 166.752 263.564 157.209 263.564 157.209V141.643L251.505 150.445C251.412 150.445 253.36 153.78 254.102 155.17Z" fill="#E0E9F8"/>
<path d="M242.414 124.131C240.373 137.01 242.599 148.962 248.814 150.352C255.03 151.742 263.935 144.978 263.935 138.956C263.935 132.933 269.965 117.274 263.1 113.754C256.328 110.14 243.805 115.885 242.414 124.131Z" fill="#F1F5FB"/>
<path d="M247.701 122.926C247.701 122.926 244.454 125.613 242.043 127.096C239.631 128.485 240.28 120.332 244.825 116.533C249.464 112.734 255.494 109.399 257.998 111.622C257.998 111.622 265.698 109.491 270.336 117.367C274.974 125.243 275.345 132.284 276.83 134.23C278.314 136.176 280.726 137.38 279.613 141.086C279.613 141.086 287.776 139.419 289.075 145.071C290.281 150.723 289.91 152.576 289.91 152.576C289.91 152.576 287.405 150.63 282.117 148.777C282.117 148.777 278.592 151.556 275.253 151.556C271.913 151.556 267.646 165.084 261.802 165.084L261.709 132.748C261.709 132.748 248.351 131.08 247.701 122.926Z" fill="#CEDCF3"/>
<path d="M172.932 191.49C157.44 207.612 144.175 256.719 144.175 256.719H166.346L180.261 224.105L172.932 191.49Z" fill="#E0E9F8"/>
<path d="M253.546 194.084C250.299 190.378 233.044 178.333 211.059 179.63C191.671 180.835 175.994 186.765 172.932 191.397C170.706 194.826 175.622 217.804 178.962 226.884C182.394 236.057 183.879 245.786 183.879 254.125C183.879 254.125 238.703 253.847 238.981 254.125C239.26 254.403 245.753 233.926 246.681 223.734C247.609 213.542 245.66 202.331 253.546 194.084Z" fill="#E0E9F8"/>
<path d="M223.86 160.636C223.86 160.636 224.139 177.685 223.86 182.781C223.582 187.877 215.697 192.417 212.821 192.602C209.853 192.695 203.452 188.433 202.431 181.206V165.825L223.86 160.636Z" fill="#F1F5FB"/>
<path d="M223.953 169.902C223.953 164.991 223.86 160.636 223.86 160.636L202.339 165.732V178.333C204.101 186.209 216.068 184.078 218.851 176.573C220.521 172.311 221.912 171.014 223.953 169.902Z" fill="#E0E9F8"/>
<path d="M196.68 153.965C197.515 166.474 202.617 178.519 210.595 177.221C220.614 175.646 223.675 160.451 223.211 152.205C222.84 143.958 218.109 138.77 210.966 138.77C204.194 138.862 195.938 143.495 196.68 153.965Z" fill="#F1F5FB"/>
<path d="M225.623 158.134C225.066 160.636 223.861 162.489 222.933 162.304C222.005 162.118 221.634 159.987 222.191 157.486C222.747 154.984 223.953 153.131 224.881 153.316C225.809 153.502 226.087 155.633 225.623 158.134Z" fill="#F1F5FB"/>
<path d="M196.773 156.004C195.289 153.687 195.103 152.761 195.289 148.869C195.382 144.978 198.628 144.885 198.628 143.217C198.536 141.549 200.669 137.102 209.296 136.731C217.924 136.361 217.367 140.345 220.057 140.623C222.747 140.901 226.829 143.588 224.881 153.409C224.881 153.409 222.562 153.595 221.634 158.32C221.541 158.691 221.078 158.783 220.892 158.505C220.614 158.135 220.335 157.486 220.057 156.652C219.408 154.243 216.81 157.857 216.347 153.131C215.975 149.796 207.812 155.911 201.69 150.444C201.69 150.444 200.762 151.649 198.164 151.556C196.68 151.556 196.773 156.004 196.773 156.004Z" fill="#CEDCF3"/>
<path d="M202.339 201.034C202.339 201.034 203.081 201.96 204.38 199.922C205.678 197.883 210.224 191.768 211.801 192.324C208.647 191.676 203.266 187.506 202.339 181.02V180.464C199.834 180.835 197.329 181.206 195.103 181.762C194.454 185.375 197.144 197.05 202.339 201.034Z" fill="#CEDCF3"/>
<path d="M223.861 182.687C223.582 187.135 217.645 191.119 214.12 192.231C215.79 191.582 221.82 199.551 222.84 201.311C223.861 203.072 225.809 200.662 227.757 195.844C229.148 192.324 231.282 186.208 230.354 181.854C228.313 181.298 226.18 180.834 223.861 180.371C223.953 181.298 223.861 182.132 223.861 182.687Z" fill="#CEDCF3"/>
<path d="M264.214 244.025C264.214 229.941 260.132 201.589 253.546 194.177C253.546 194.177 243.342 199.643 240.095 216.97C239.167 222.158 240.744 236.891 241.208 243.191L264.214 244.025Z" fill="#E0E9F8"/>
<path d="M224.324 257.924C224.324 257.924 250.762 257.924 255.308 257.924C259.946 257.924 264.863 254.218 264.121 244.026C263.471 233.834 246.773 235.316 241.115 243.099L224.046 245.693L224.324 257.924Z" fill="#E0E9F8"/>
<path d="M208.647 257.275L210.131 255.885L214.584 257.46C215.326 257.738 216.161 257.831 216.996 257.831H225.808C225.808 257.831 229.983 256.904 230.168 251.994C230.261 247.083 226.087 245.601 224.231 245.601H214.491C214.027 245.601 213.563 245.508 213.007 245.415L206.142 243.933C205.122 243.748 204.101 243.933 203.174 244.396L199.277 246.62C198.535 247.083 197.793 247.546 197.237 248.195L190.094 255.329C189.166 256.256 189.815 257.738 191.114 257.738H207.163C207.719 257.924 208.276 257.646 208.647 257.275Z" fill="#F1F5FB"/>
<path d="M290.93 154.244C284.251 150.445 272.655 161.286 275.16 174.257C277.664 187.229 263.471 203.166 263.471 203.166C263.471 203.166 247.423 209.651 240.929 210.856C242.506 213.08 244.269 216.322 245.011 220.492C255.586 219.658 270.707 217.434 276.829 212.338C286.106 204.648 295.939 176.203 295.939 167.215C295.939 156.746 290.93 154.244 290.93 154.244Z" fill="#99B9EE"/>
<path d="M239.259 211.041C234.621 211.041 218.48 211.041 218.48 211.041C218.48 211.041 203.637 216.045 203.266 216.879C202.895 217.712 202.153 222.808 203.266 224.013C204.379 225.217 211.986 227.348 213.841 226.978C215.79 226.607 230.818 221.048 234.25 221.048C235.456 221.048 239.63 220.955 245.011 220.492C244.176 216.323 242.413 212.987 240.929 210.856C240.28 210.949 239.723 211.041 239.259 211.041Z" fill="#F1F5FB"/>
<path d="M106.048 197.235C106.048 197.235 111.243 201.312 116.623 197.235C121.911 193.158 118.293 186.117 118.293 186.117L106.141 192.603V197.235H106.048Z" fill="#CEDCF3"/>
<path d="M113.562 158.598V189.452H103.544V160.359L113.562 158.598Z" fill="#F1F5FB"/>
<path d="M97.2354 235.131C96.3078 240.227 90.8346 247.454 87.3095 257.924H107.254C109.202 245.415 110.872 228.645 108.182 213.635H96.5861C97.6993 218.731 98.0703 230.313 97.2354 235.131Z" fill="#99B9EE"/>
<path d="M78.1259 234.019C78.1259 234.019 80.445 245.23 82.022 257.924H87.3096C90.8347 247.546 96.3079 240.319 97.2356 235.131C98.1632 230.313 97.6994 218.731 96.679 213.635H78.5897L78.1259 234.019Z" fill="url(#paint1_linear)"/>
<path d="M97.1731 213.635C97.0803 212.986 96.8948 212.43 96.7092 212.06H62.1077C62.5715 228.738 63.8702 245.23 64.7051 257.924H87.8037C91.3288 247.547 96.802 240.32 97.7297 235.131C98.6573 230.313 98.2863 218.731 97.1731 213.635Z" fill="#CEDCF3"/>
<path d="M85.176 131.265C64.6748 125.798 50.8527 134.879 48.6263 148.036C46.5855 159.988 61.6135 197.143 61.6135 212.06C61.6135 212.06 85.9181 224.568 108.182 213.635C108.182 213.635 104.842 197.699 108.182 183.615C111.521 169.532 115.974 161.471 112.171 151.371C108.831 142.569 94.7308 133.767 85.176 131.265Z" fill="#F1F5FB"/>
<path d="M92.9697 117.982C92.9697 117.982 85.2702 127.711 82.0234 130.768C78.7766 133.826 84.8064 140.219 89.3519 142.906C92.4131 144.666 98.7212 146.612 96.8659 141.146C96.8659 141.146 95.8455 138.088 100.948 133.641C100.855 133.548 95.1961 116.592 92.9697 117.982Z" fill="#CEDCF3"/>
<path d="M100.668 133.304C100.668 133.304 97.9776 125.428 95.6585 120.795L93.1538 122C90.1853 128.022 89.7215 139.326 96.5861 140.809C96.5861 140.809 95.5657 137.751 100.668 133.304Z" fill="#99B9EE"/>
<path d="M95.8541 115.975C96.5035 112.269 93.1639 111.991 92.1435 115.049C90.9375 118.569 92.2363 121.071 93.6278 120.237C93.6278 120.237 91.0303 128.205 94.2771 133.024C97.6167 137.842 101.884 135.988 107.172 130.8C111.717 126.352 114.686 120.793 115.149 118.755C116.355 113.288 110.604 108.748 105.223 109.119C98.7299 109.304 95.8541 115.975 95.8541 115.975Z" fill="#CEDCF3"/>
<path d="M95.8441 115.977C95.6586 118.201 96.0296 119.868 97.2356 119.127C98.5343 118.386 101.596 114.031 104.286 117.181C107.069 120.332 109.295 123.297 114.212 122.741C120.52 122.092 122.004 113.475 116.438 111.9C116.438 111.9 118.85 108.935 114.583 107.545C110.594 106.248 110.501 107.082 107.718 103.932C106.141 102.171 96.5862 103.098 93.9888 112.919C93.9888 113.012 96.2151 112.549 95.8441 115.977Z" fill="#F1F5FB"/>
<path d="M64.4891 179.26C64.6746 174.998 67.3648 163.972 71.0754 156.838C74.786 149.796 72.9307 140.716 67.9214 137.102C62.912 133.581 55.8619 134.23 52.5223 139.141C43.524 152.39 46.1215 182.133 51.0381 192.232C51.9657 194.27 54.2848 195.568 57.4389 196.309C50.4815 193.158 57.3461 177.592 64.4891 179.26Z" fill="#F1F5FB"/>
<path d="M90.8344 191.398L104.285 175.183C104.842 174.442 105.77 174.164 106.697 174.442L129.518 180.742C130.074 180.928 130.26 181.576 129.796 182.04L112.542 197.606C112.171 197.976 111.707 198.069 111.15 197.976L91.391 193.343C90.6489 192.973 90.3706 192.046 90.8344 191.398Z" fill="#99B9EE"/>
<path d="M106.976 184.912C106.234 182.688 103.915 181.021 102.616 180.65C101.688 180.372 94.6382 180.465 90.8348 180.557C89.3505 180.557 87.9591 181.021 86.6603 181.762C85.4544 182.503 83.9701 183.337 83.228 183.337C81.9293 183.337 71.354 183.337 71.354 183.337C71.354 183.337 68.1072 180.835 64.3038 179.168C57.1609 177.5 50.389 193.066 57.1609 196.216C68.6638 199.088 91.2986 194.919 100.761 191.676C102.894 190.935 104.75 189.638 106.048 187.784C106.883 186.858 107.347 185.839 106.976 184.912Z" fill="#CEDCF3"/>
<path d="M187.682 260.518H220.243C222.098 260.518 223.582 259.036 223.582 257.183C223.582 256.349 222.933 255.608 222.005 255.608H187.589C186.754 255.608 186.012 256.256 186.012 257.183V259.036C186.198 259.777 186.847 260.518 187.682 260.518Z" fill="#99B9EE"/>
<path d="M130.075 260.518H198.072C200.669 260.518 202.617 258.016 201.875 255.515L189.909 211.874C189.166 209.002 186.569 207.056 183.601 207.056H115.603C113.006 207.056 111.058 209.558 111.8 212.06L123.767 255.7C124.602 258.48 127.106 260.518 130.075 260.518Z" fill="#CEDCF3"/>
<path d="M329.613 226.699C328.593 226.977 327.201 228.089 325.624 229.664C324.047 231.147 322.285 232.907 320.151 234.575C318.852 235.594 317.554 236.521 316.255 237.447C315.049 238.374 313.843 239.208 312.73 240.134C310.596 241.895 308.927 243.562 308.37 244.767C308.927 243.47 309.205 241.153 310.225 238.374C310.782 236.984 311.524 235.501 312.544 233.926C313.565 232.444 314.864 231.054 316.441 229.757C319.131 227.811 322.007 227.07 324.418 226.885C326.83 226.607 328.593 226.977 329.613 226.699Z" fill="#99B9EE"/>
<path d="M307.535 243.655C307.628 242.358 306.978 240.32 306.607 237.633C306.143 234.946 305.958 231.61 306.793 227.997C307.813 223.549 309.761 219.843 311.617 216.878C313.472 213.913 315.234 211.782 315.884 210.3C315.234 211.782 314.863 214.562 314.492 217.897C314.121 221.233 313.657 225.217 312.73 229.294C311.988 232.722 310.689 235.594 309.669 238.003C308.555 240.505 307.628 242.451 307.535 243.655Z" fill="#99B9EE"/>
<path d="M288.611 221.789C289.631 222.252 291.579 222.252 293.991 222.994C296.403 223.642 299.279 225.032 301.691 227.626C304.567 230.869 305.958 234.575 306.515 237.726C307.164 240.876 306.978 243.378 307.257 244.767C306.978 243.285 305.587 241.154 303.732 238.93C301.876 236.614 299.464 234.297 297.145 231.61C295.197 229.479 293.713 227.256 292.322 225.403C291.023 223.642 289.724 222.252 288.611 221.789Z" fill="#99B9EE"/>
<path d="M319.78 236.428H299.65C298.629 236.428 297.794 237.355 297.887 238.374L300.299 258.85C300.392 259.777 301.134 260.426 302.062 260.426H317.275C318.203 260.426 318.945 259.777 319.038 258.85L321.45 238.374C321.635 237.355 320.8 236.428 319.78 236.428Z" fill="#99B9EE"/>
<path d="M296.867 236.521L297.795 244.118C297.887 244.582 298.166 244.86 298.63 244.86H320.708C321.172 244.86 321.45 244.582 321.543 244.118L322.47 236.521C322.563 236.058 322.099 235.594 321.635 235.594H297.702C297.238 235.594 296.867 235.965 296.867 236.521Z" fill="#CEDCF3"/>
</g>
<defs>
<linearGradient id="paint0_linear" x1="273.426" y1="271.583" x2="274.13" y2="181.933" gradientUnits="userSpaceOnUse">
<stop stop-color="#001462"/>
<stop offset="0.0686931" stop-color="#081E71"/>
<stop offset="0.2519" stop-color="#193595"/>
<stop offset="0.4371" stop-color="#2748B0"/>
<stop offset="0.623" stop-color="#3055C4"/>
<stop offset="0.8101" stop-color="#365CD0"/>
<stop offset="1" stop-color="#385FD4"/>
</linearGradient>
<linearGradient id="paint1_linear" x1="35.7618" y1="225.511" x2="195.287" y2="256.171" gradientUnits="userSpaceOnUse">
<stop offset="0.1048" stop-color="#001462"/>
<stop offset="0.2974" stop-color="#142E8A"/>
<stop offset="0.49" stop-color="#2343AA"/>
<stop offset="0.6752" stop-color="#2F53C1"/>
<stop offset="0.8491" stop-color="#365CCF"/>
<stop offset="1" stop-color="#385FD4"/>
</linearGradient>
</defs>
</svg>
