<svg width="1794" height="647" viewBox="0 0 1794 647" fill="none" xmlns="http://www.w3.org/2000/svg">
<path d="M185.747 4.40572C170.728 2.59275 155.431 1.32373 140.383 0.895521C-83.867 -5.75015 -291.705 120.143 -414.539 310.072C-512.595 462.133 -541.792 647.413 -527.601 828.784C-513.535 1009.74 -452.139 1183.05 -467.839 1366.48C-490.305 1624.9 -543.049 1897.43 -447.23 2164.05C-338.448 2467.04 -65.1369 2714.3 241.825 2773.53C541.216 2831.64 769.669 2593.04 995.372 2434.83C1401.47 2150.68 1817.97 1674.85 1792.02 1126.1C1761.14 468.794 1068.66 194.666 539.667 99.2177C419.133 77.4944 306.814 19.7747 185.747 4.40572Z" fill="#F1F5FB"/>
</svg>
